%!PS-Adobe-3.0 EPSF-3.0
%%Title: 10kHz_5Vpp_V-t.eps
%%Creator: matplotlib version 3.2.2, http://matplotlib.org/
%%CreationDate: Mon Oct 19 23:26:17 2020
%%Orientation: portrait
%%BoundingBox: -154.8 50.40000000000001 766.8 741.5999999999999
%%EndComments
%%BeginProlog
/mpldict 8 dict def
mpldict begin
/m { moveto } bind def
/l { lineto } bind def
/r { rlineto } bind def
/c { curveto } bind def
/cl { closepath } bind def
/box {
m
1 index 0 r
0 exch r
neg 0 r
cl
} bind def
/clipbox {
box
clip
newpath
} bind def
%!PS-Adobe-3.0 Resource-Font
%%Title: DejaVu Sans
%%Copyright: Copyright (c) 2003 by Bitstream, Inc. All Rights Reserved. Copyright (c) 2006 by Tavmjong Bah. All Rights Reserved. DejaVu changes are in public domain 
%%Creator: Converted from TrueType to type 3 by PPR
25 dict begin
/_d{bind def}bind def
/_m{moveto}_d
/_l{lineto}_d
/_cl{closepath eofill}_d
/_c{curveto}_d
/_sc{7 -1 roll{setcachedevice}{pop pop pop pop pop pop}ifelse}_d
/_e{exec}_d
/FontName /DejaVuSans def
/PaintType 0 def
/FontMatrix[.001 0 0 .001 0 0]def
/FontBBox[-1021 -463 1793 1232]def
/FontType 3 def
/Encoding [ /space /comma /period /slash /zero /one /two /three /four /five /six /H /O /T /V /W /a /b /c /d /e /f /g /h /i /k /l /m /n /o /p /q /r /s /t /u /w /y /z /minus ] def
/FontInfo 10 dict dup begin
/FamilyName (DejaVu Sans) def
/FullName (DejaVu Sans) def
/Notice (Copyright (c) 2003 by Bitstream, Inc. All Rights Reserved. Copyright (c) 2006 by Tavmjong Bah. All Rights Reserved. DejaVu changes are in public domain ) def
/Weight (Book) def
/Version (Version 2.35) def
/ItalicAngle 0.0 def
/isFixedPitch false def
/UnderlinePosition -130 def
/UnderlineThickness 90 def
end readonly def
/CharStrings 41 dict dup begin
/.notdef 0 def
/space{318 0 0 0 0 0 _sc
}_d
/comma{318 0 77 -115 220 124 _sc
117 124 _m
220 124 _l
220 40 _l
140 -115 _l
77 -115 _l
117 40 _l
117 124 _l
_cl}_d
/period{318 0 107 0 210 124 _sc
107 124 _m
210 124 _l
210 0 _l
107 0 _l
107 124 _l
_cl}_d
/slash{337 0 0 -92 337 729 _sc
254 729 _m
337 729 _l
83 -92 _l
0 -92 _l
254 729 _l
_cl}_d
/zero{636 0 66 -13 570 742 _sc
318 664 _m
267 664 229 639 203 589 _c
177 539 165 464 165 364 _c
165 264 177 189 203 139 _c
229 89 267 64 318 64 _c
369 64 407 89 433 139 _c
458 189 471 264 471 364 _c
471 464 458 539 433 589 _c
407 639 369 664 318 664 _c
318 742 _m
399 742 461 709 505 645 _c
548 580 570 486 570 364 _c
570 241 548 147 505 83 _c
461 19 399 -13 318 -13 _c
236 -13 173 19 130 83 _c
87 147 66 241 66 364 _c
66 486 87 580 130 645 _c
173 709 236 742 318 742 _c
_cl}_d
/one{636 0 110 0 544 729 _sc
124 83 _m
285 83 _l
285 639 _l
110 604 _l
110 694 _l
284 729 _l
383 729 _l
383 83 _l
544 83 _l
544 0 _l
124 0 _l
124 83 _l
_cl}_d
/two{{636 0 73 0 536 742 _sc
192 83 _m
536 83 _l
536 0 _l
73 0 _l
73 83 _l
110 121 161 173 226 239 _c
290 304 331 346 348 365 _c
380 400 402 430 414 455 _c
426 479 433 504 433 528 _c
433 566 419 598 392 622 _c
365 646 330 659 286 659 _c
255 659 222 653 188 643 _c
154 632 117 616 78 594 _c
78 694 _l
118 710 155 722 189 730 _c
223 738 255 742 284 742 _c
}_e{359 742 419 723 464 685 _c
509 647 532 597 532 534 _c
532 504 526 475 515 449 _c
504 422 484 390 454 354 _c
446 344 420 317 376 272 _c
332 227 271 164 192 83 _c
_cl}_e}_d
/three{{636 0 76 -13 556 742 _sc
406 393 _m
453 383 490 362 516 330 _c
542 298 556 258 556 212 _c
556 140 531 84 482 45 _c
432 6 362 -13 271 -13 _c
240 -13 208 -10 176 -4 _c
144 1 110 10 76 22 _c
76 117 _l
103 101 133 89 166 81 _c
198 73 232 69 268 69 _c
330 69 377 81 409 105 _c
441 129 458 165 458 212 _c
458 254 443 288 413 312 _c
383 336 341 349 287 349 _c
}_e{202 349 _l
202 430 _l
291 430 _l
339 430 376 439 402 459 _c
428 478 441 506 441 543 _c
441 580 427 609 401 629 _c
374 649 336 659 287 659 _c
260 659 231 656 200 650 _c
169 644 135 635 98 623 _c
98 711 _l
135 721 170 729 203 734 _c
235 739 266 742 296 742 _c
370 742 429 725 473 691 _c
517 657 539 611 539 553 _c
539 513 527 479 504 451 _c
481 423 448 403 406 393 _c
_cl}_e}_d
/four{636 0 49 0 580 729 _sc
378 643 _m
129 254 _l
378 254 _l
378 643 _l
352 729 _m
476 729 _l
476 254 _l
580 254 _l
580 172 _l
476 172 _l
476 0 _l
378 0 _l
378 172 _l
49 172 _l
49 267 _l
352 729 _l
_cl}_d
/five{{636 0 77 -13 549 729 _sc
108 729 _m
495 729 _l
495 646 _l
198 646 _l
198 467 _l
212 472 227 476 241 478 _c
255 480 270 482 284 482 _c
365 482 429 459 477 415 _c
525 370 549 310 549 234 _c
549 155 524 94 475 51 _c
426 8 357 -13 269 -13 _c
238 -13 207 -10 175 -6 _c
143 -1 111 6 77 17 _c
77 116 _l
106 100 136 88 168 80 _c
199 72 232 69 267 69 _c
}_e{323 69 368 83 401 113 _c
433 143 450 183 450 234 _c
450 284 433 324 401 354 _c
368 384 323 399 267 399 _c
241 399 214 396 188 390 _c
162 384 135 375 108 363 _c
108 729 _l
_cl}_e}_d
/six{{636 0 70 -13 573 742 _sc
330 404 _m
286 404 251 388 225 358 _c
199 328 186 286 186 234 _c
186 181 199 139 225 109 _c
251 79 286 64 330 64 _c
374 64 409 79 435 109 _c
461 139 474 181 474 234 _c
474 286 461 328 435 358 _c
409 388 374 404 330 404 _c
526 713 _m
526 623 _l
501 635 476 644 451 650 _c
425 656 400 659 376 659 _c
310 659 260 637 226 593 _c
}_e{192 549 172 482 168 394 _c
187 422 211 444 240 459 _c
269 474 301 482 336 482 _c
409 482 467 459 509 415 _c
551 371 573 310 573 234 _c
573 159 550 99 506 54 _c
462 9 403 -13 330 -13 _c
246 -13 181 19 137 83 _c
92 147 70 241 70 364 _c
70 479 97 571 152 639 _c
206 707 280 742 372 742 _c
396 742 421 739 447 735 _c
472 730 498 723 526 713 _c
_cl}_e}_d
/H{752 0 98 0 654 729 _sc
98 729 _m
197 729 _l
197 430 _l
555 430 _l
555 729 _l
654 729 _l
654 0 _l
555 0 _l
555 347 _l
197 347 _l
197 0 _l
98 0 _l
98 729 _l
_cl}_d
/O{787 0 56 -13 731 742 _sc
394 662 _m
322 662 265 635 223 582 _c
181 528 160 456 160 364 _c
160 272 181 199 223 146 _c
265 92 322 66 394 66 _c
465 66 522 92 564 146 _c
606 199 627 272 627 364 _c
627 456 606 528 564 582 _c
522 635 465 662 394 662 _c
394 742 _m
496 742 577 707 639 639 _c
700 571 731 479 731 364 _c
731 248 700 157 639 89 _c
577 21 496 -13 394 -13 _c
291 -13 209 21 148 89 _c
86 157 56 248 56 364 _c
56 479 86 571 148 639 _c
209 707 291 742 394 742 _c
_cl}_d
/T{611 0 -2 0 614 729 _sc
-2 729 _m
614 729 _l
614 646 _l
355 646 _l
355 0 _l
256 0 _l
256 646 _l
-2 646 _l
-2 729 _l
_cl}_d
/V{684 0 8 0 676 729 _sc
286 0 _m
8 729 _l
111 729 _l
342 115 _l
573 729 _l
676 729 _l
398 0 _l
286 0 _l
_cl}_d
/W{989 0 33 0 956 729 _sc
33 729 _m
133 729 _l
286 113 _l
439 729 _l
550 729 _l
703 113 _l
856 729 _l
956 729 _l
773 0 _l
649 0 _l
495 633 _l
340 0 _l
216 0 _l
33 729 _l
_cl}_d
/a{{613 0 60 -13 522 560 _sc
343 275 _m
270 275 220 266 192 250 _c
164 233 150 205 150 165 _c
150 133 160 107 181 89 _c
202 70 231 61 267 61 _c
317 61 357 78 387 114 _c
417 149 432 196 432 255 _c
432 275 _l
343 275 _l
522 312 _m
522 0 _l
432 0 _l
432 83 _l
411 49 385 25 355 10 _c
325 -5 287 -13 243 -13 _c
187 -13 142 2 109 33 _c
76 64 60 106 60 159 _c
}_e{60 220 80 266 122 298 _c
163 329 224 345 306 345 _c
432 345 _l
432 354 _l
432 395 418 427 391 450 _c
364 472 326 484 277 484 _c
245 484 215 480 185 472 _c
155 464 127 453 100 439 _c
100 522 _l
132 534 164 544 195 550 _c
226 556 256 560 286 560 _c
365 560 424 539 463 498 _c
502 457 522 395 522 312 _c
_cl}_e}_d
/b{{635 0 91 -13 580 760 _sc
487 273 _m
487 339 473 390 446 428 _c
418 466 381 485 334 485 _c
286 485 249 466 222 428 _c
194 390 181 339 181 273 _c
181 207 194 155 222 117 _c
249 79 286 61 334 61 _c
381 61 418 79 446 117 _c
473 155 487 207 487 273 _c
181 464 _m
199 496 223 520 252 536 _c
281 552 316 560 356 560 _c
422 560 476 533 518 481 _c
559 428 580 359 580 273 _c
}_e{580 187 559 117 518 65 _c
476 13 422 -13 356 -13 _c
316 -13 281 -5 252 10 _c
223 25 199 49 181 82 _c
181 0 _l
91 0 _l
91 760 _l
181 760 _l
181 464 _l
_cl}_e}_d
/c{{550 0 55 -13 488 560 _sc
488 526 _m
488 442 _l
462 456 437 466 411 473 _c
385 480 360 484 334 484 _c
276 484 230 465 198 428 _c
166 391 150 339 150 273 _c
150 206 166 154 198 117 _c
230 80 276 62 334 62 _c
360 62 385 65 411 72 _c
437 79 462 90 488 104 _c
488 21 _l
462 9 436 0 410 -5 _c
383 -10 354 -13 324 -13 _c
242 -13 176 12 128 64 _c
}_e{79 115 55 185 55 273 _c
55 362 79 432 128 483 _c
177 534 244 560 330 560 _c
358 560 385 557 411 551 _c
437 545 463 537 488 526 _c
_cl}_e}_d
/d{{635 0 55 -13 544 760 _sc
454 464 _m
454 760 _l
544 760 _l
544 0 _l
454 0 _l
454 82 _l
435 49 411 25 382 10 _c
353 -5 319 -13 279 -13 _c
213 -13 159 13 117 65 _c
75 117 55 187 55 273 _c
55 359 75 428 117 481 _c
159 533 213 560 279 560 _c
319 560 353 552 382 536 _c
411 520 435 496 454 464 _c
148 273 _m
148 207 161 155 188 117 _c
215 79 253 61 301 61 _c
}_e{348 61 385 79 413 117 _c
440 155 454 207 454 273 _c
454 339 440 390 413 428 _c
385 466 348 485 301 485 _c
253 485 215 466 188 428 _c
161 390 148 339 148 273 _c
_cl}_e}_d
/e{{615 0 55 -13 562 560 _sc
562 296 _m
562 252 _l
149 252 _l
153 190 171 142 205 110 _c
238 78 284 62 344 62 _c
378 62 412 66 444 74 _c
476 82 509 95 541 113 _c
541 28 _l
509 14 476 3 442 -3 _c
408 -9 373 -13 339 -13 _c
251 -13 182 12 131 62 _c
80 112 55 181 55 268 _c
55 357 79 428 127 481 _c
175 533 241 560 323 560 _c
397 560 455 536 498 489 _c
}_e{540 441 562 377 562 296 _c
472 322 _m
471 371 457 410 431 440 _c
404 469 368 484 324 484 _c
274 484 234 469 204 441 _c
174 413 156 373 152 322 _c
472 322 _l
_cl}_e}_d
/f{352 0 23 0 371 760 _sc
371 760 _m
371 685 _l
285 685 _l
253 685 230 678 218 665 _c
205 652 199 629 199 595 _c
199 547 _l
347 547 _l
347 477 _l
199 477 _l
199 0 _l
109 0 _l
109 477 _l
23 477 _l
23 547 _l
109 547 _l
109 585 _l
109 645 123 690 151 718 _c
179 746 224 760 286 760 _c
371 760 _l
_cl}_d
/g{{635 0 55 -207 544 560 _sc
454 280 _m
454 344 440 395 414 431 _c
387 467 349 485 301 485 _c
253 485 215 467 188 431 _c
161 395 148 344 148 280 _c
148 215 161 165 188 129 _c
215 93 253 75 301 75 _c
349 75 387 93 414 129 _c
440 165 454 215 454 280 _c
544 68 _m
544 -24 523 -93 482 -139 _c
440 -184 377 -207 292 -207 _c
260 -207 231 -204 203 -200 _c
175 -195 147 -188 121 -178 _c
}_e{121 -91 _l
147 -105 173 -115 199 -122 _c
225 -129 251 -133 278 -133 _c
336 -133 380 -117 410 -87 _c
439 -56 454 -10 454 52 _c
454 96 _l
435 64 411 40 382 24 _c
353 8 319 0 279 0 _c
211 0 157 25 116 76 _c
75 127 55 195 55 280 _c
55 364 75 432 116 483 _c
157 534 211 560 279 560 _c
319 560 353 552 382 536 _c
411 520 435 496 454 464 _c
454 547 _l
544 547 _l
}_e{544 68 _l
_cl}_e}_d
/h{634 0 91 0 549 760 _sc
549 330 _m
549 0 _l
459 0 _l
459 327 _l
459 379 448 417 428 443 _c
408 469 378 482 338 482 _c
289 482 251 466 223 435 _c
195 404 181 362 181 309 _c
181 0 _l
91 0 _l
91 760 _l
181 760 _l
181 462 _l
202 494 227 519 257 535 _c
286 551 320 560 358 560 _c
420 560 468 540 500 501 _c
532 462 549 405 549 330 _c
_cl}_d
/i{278 0 94 0 184 760 _sc
94 547 _m
184 547 _l
184 0 _l
94 0 _l
94 547 _l
94 760 _m
184 760 _l
184 646 _l
94 646 _l
94 760 _l
_cl}_d
/k{579 0 91 0 576 760 _sc
91 760 _m
181 760 _l
181 311 _l
449 547 _l
564 547 _l
274 291 _l
576 0 _l
459 0 _l
181 267 _l
181 0 _l
91 0 _l
91 760 _l
_cl}_d
/l{278 0 94 0 184 760 _sc
94 760 _m
184 760 _l
184 0 _l
94 0 _l
94 760 _l
_cl}_d
/m{{974 0 91 0 889 560 _sc
520 442 _m
542 482 569 511 600 531 _c
631 550 668 560 711 560 _c
767 560 811 540 842 500 _c
873 460 889 403 889 330 _c
889 0 _l
799 0 _l
799 327 _l
799 379 789 418 771 444 _c
752 469 724 482 686 482 _c
639 482 602 466 575 435 _c
548 404 535 362 535 309 _c
535 0 _l
445 0 _l
445 327 _l
445 379 435 418 417 444 _c
398 469 369 482 331 482 _c
}_e{285 482 248 466 221 435 _c
194 404 181 362 181 309 _c
181 0 _l
91 0 _l
91 547 _l
181 547 _l
181 462 _l
201 495 226 520 255 536 _c
283 552 317 560 357 560 _c
397 560 430 550 458 530 _c
486 510 506 480 520 442 _c
_cl}_e}_d
/n{634 0 91 0 549 560 _sc
549 330 _m
549 0 _l
459 0 _l
459 327 _l
459 379 448 417 428 443 _c
408 469 378 482 338 482 _c
289 482 251 466 223 435 _c
195 404 181 362 181 309 _c
181 0 _l
91 0 _l
91 547 _l
181 547 _l
181 462 _l
202 494 227 519 257 535 _c
286 551 320 560 358 560 _c
420 560 468 540 500 501 _c
532 462 549 405 549 330 _c
_cl}_d
/o{612 0 55 -13 557 560 _sc
306 484 _m
258 484 220 465 192 427 _c
164 389 150 338 150 273 _c
150 207 163 156 191 118 _c
219 80 257 62 306 62 _c
354 62 392 80 420 118 _c
448 156 462 207 462 273 _c
462 337 448 389 420 427 _c
392 465 354 484 306 484 _c
306 560 _m
384 560 445 534 490 484 _c
534 433 557 363 557 273 _c
557 183 534 113 490 63 _c
445 12 384 -13 306 -13 _c
227 -13 165 12 121 63 _c
77 113 55 183 55 273 _c
55 363 77 433 121 484 _c
165 534 227 560 306 560 _c
_cl}_d
/p{{635 0 91 -207 580 560 _sc
181 82 _m
181 -207 _l
91 -207 _l
91 547 _l
181 547 _l
181 464 _l
199 496 223 520 252 536 _c
281 552 316 560 356 560 _c
422 560 476 533 518 481 _c
559 428 580 359 580 273 _c
580 187 559 117 518 65 _c
476 13 422 -13 356 -13 _c
316 -13 281 -5 252 10 _c
223 25 199 49 181 82 _c
487 273 _m
487 339 473 390 446 428 _c
418 466 381 485 334 485 _c
}_e{286 485 249 466 222 428 _c
194 390 181 339 181 273 _c
181 207 194 155 222 117 _c
249 79 286 61 334 61 _c
381 61 418 79 446 117 _c
473 155 487 207 487 273 _c
_cl}_e}_d
/q{{635 0 55 -207 544 560 _sc
148 273 _m
148 207 161 155 188 117 _c
215 79 253 61 301 61 _c
348 61 385 79 413 117 _c
440 155 454 207 454 273 _c
454 339 440 390 413 428 _c
385 466 348 485 301 485 _c
253 485 215 466 188 428 _c
161 390 148 339 148 273 _c
454 82 _m
435 49 411 25 382 10 _c
353 -5 319 -13 279 -13 _c
213 -13 159 13 117 65 _c
75 117 55 187 55 273 _c
}_e{55 359 75 428 117 481 _c
159 533 213 560 279 560 _c
319 560 353 552 382 536 _c
411 520 435 496 454 464 _c
454 547 _l
544 547 _l
544 -207 _l
454 -207 _l
454 82 _l
_cl}_e}_d
/r{411 0 91 0 411 560 _sc
411 463 _m
401 469 390 473 378 476 _c
366 478 353 480 339 480 _c
288 480 249 463 222 430 _c
194 397 181 350 181 288 _c
181 0 _l
91 0 _l
91 547 _l
181 547 _l
181 462 _l
199 495 224 520 254 536 _c
284 552 321 560 365 560 _c
371 560 378 559 386 559 _c
393 558 401 557 411 555 _c
411 463 _l
_cl}_d
/s{{521 0 54 -13 472 560 _sc
443 531 _m
443 446 _l
417 458 391 468 364 475 _c
336 481 308 485 279 485 _c
234 485 200 478 178 464 _c
156 450 145 430 145 403 _c
145 382 153 366 169 354 _c
185 342 217 330 265 320 _c
296 313 _l
360 299 405 279 432 255 _c
458 230 472 195 472 151 _c
472 100 452 60 412 31 _c
372 1 316 -13 246 -13 _c
216 -13 186 -10 154 -5 _c
}_e{122 0 89 8 54 20 _c
54 113 _l
87 95 120 82 152 74 _c
184 65 216 61 248 61 _c
290 61 323 68 346 82 _c
368 96 380 117 380 144 _c
380 168 371 187 355 200 _c
339 213 303 226 247 238 _c
216 245 _l
160 257 119 275 95 299 _c
70 323 58 356 58 399 _c
58 450 76 490 112 518 _c
148 546 200 560 268 560 _c
301 560 332 557 362 552 _c
391 547 418 540 443 531 _c
}_e{_cl}_e}_d
/t{392 0 27 0 368 702 _sc
183 702 _m
183 547 _l
368 547 _l
368 477 _l
183 477 _l
183 180 _l
183 135 189 106 201 94 _c
213 81 238 75 276 75 _c
368 75 _l
368 0 _l
276 0 _l
206 0 158 13 132 39 _c
106 65 93 112 93 180 _c
93 477 _l
27 477 _l
27 547 _l
93 547 _l
93 702 _l
183 702 _l
_cl}_d
/u{634 0 85 -13 543 560 _sc
85 216 _m
85 547 _l
175 547 _l
175 219 _l
175 167 185 129 205 103 _c
225 77 255 64 296 64 _c
344 64 383 79 411 110 _c
439 141 453 183 453 237 _c
453 547 _l
543 547 _l
543 0 _l
453 0 _l
453 84 _l
431 50 405 26 377 10 _c
348 -5 315 -13 277 -13 _c
214 -13 166 6 134 45 _c
101 83 85 140 85 216 _c
311 560 _m
311 560 _l
_cl}_d
/w{818 0 42 0 776 547 _sc
42 547 _m
132 547 _l
244 120 _l
356 547 _l
462 547 _l
574 120 _l
686 547 _l
776 547 _l
633 0 _l
527 0 _l
409 448 _l
291 0 _l
185 0 _l
42 547 _l
_cl}_d
/y{592 0 30 -207 562 547 _sc
322 -50 _m
296 -114 271 -157 247 -177 _c
223 -197 191 -207 151 -207 _c
79 -207 _l
79 -132 _l
132 -132 _l
156 -132 175 -126 189 -114 _c
203 -102 218 -75 235 -31 _c
251 9 _l
30 547 _l
125 547 _l
296 119 _l
467 547 _l
562 547 _l
322 -50 _l
_cl}_d
/z{525 0 43 0 482 547 _sc
55 547 _m
482 547 _l
482 465 _l
144 72 _l
482 72 _l
482 0 _l
43 0 _l
43 82 _l
381 475 _l
55 475 _l
55 547 _l
_cl}_d
/minus{838 0 106 272 732 355 _sc
106 355 _m
732 355 _l
732 272 _l
106 272 _l
106 355 _l
_cl}_d
end readonly def

/BuildGlyph
 {exch begin
 CharStrings exch
 2 copy known not{pop /.notdef}if
 true 3 1 roll get exec
 end}_d

/BuildChar {
 1 index /Encoding get exch get
 1 index /BuildGlyph get exec
}_d

FontName currentdict end definefont pop
end
%%EndProlog
mpldict begin
-154.8 50.4 translate
921.6 691.2 0 0 clipbox
gsave
0 0 m
921.6 0 l
921.6 691.2 l
0 691.2 l
cl
1.000 setgray
fill
grestore
gsave
115.2 265.322057 m
829.44 265.322057 l
829.44 608.256 l
115.2 608.256 l
cl
1.000 setgray
fill
grestore
0.800 setlinewidth
1 setlinejoin
2 setlinecap
[] 0 setdash
0.690 setgray
gsave
714.2 342.9 115.2 265.3 clipbox
115.2 265.322057 m
115.2 608.256 l
stroke
grestore
0 setlinecap
0.000 setgray
gsave
/o {
gsave
newpath
translate
0.8 setlinewidth
1 setlinejoin
0 setlinecap
0 0 m
0 -3.5 l

gsave
0.000 setgray
fill
grestore
stroke
grestore
} bind def
115.2 265.322 o
grestore
2 setlinecap
0.690 setgray
gsave
714.2 342.9 115.2 265.3 clipbox
258.048 265.322057 m
258.048 608.256 l
stroke
grestore
0 setlinecap
0.000 setgray
gsave
/o {
gsave
newpath
translate
0.8 setlinewidth
1 setlinejoin
0 setlinecap
0 0 m
0 -3.5 l

gsave
0.000 setgray
fill
grestore
stroke
grestore
} bind def
258.048 265.322 o
grestore
2 setlinecap
0.690 setgray
gsave
714.2 342.9 115.2 265.3 clipbox
400.896 265.322057 m
400.896 608.256 l
stroke
grestore
0 setlinecap
0.000 setgray
gsave
/o {
gsave
newpath
translate
0.8 setlinewidth
1 setlinejoin
0 setlinecap
0 0 m
0 -3.5 l

gsave
0.000 setgray
fill
grestore
stroke
grestore
} bind def
400.896 265.322 o
grestore
2 setlinecap
0.690 setgray
gsave
714.2 342.9 115.2 265.3 clipbox
543.744 265.322057 m
543.744 608.256 l
stroke
grestore
0 setlinecap
0.000 setgray
gsave
/o {
gsave
newpath
translate
0.8 setlinewidth
1 setlinejoin
0 setlinecap
0 0 m
0 -3.5 l

gsave
0.000 setgray
fill
grestore
stroke
grestore
} bind def
543.744 265.322 o
grestore
2 setlinecap
0.690 setgray
gsave
714.2 342.9 115.2 265.3 clipbox
686.592 265.322057 m
686.592 608.256 l
stroke
grestore
0 setlinecap
0.000 setgray
gsave
/o {
gsave
newpath
translate
0.8 setlinewidth
1 setlinejoin
0 setlinecap
0 0 m
0 -3.5 l

gsave
0.000 setgray
fill
grestore
stroke
grestore
} bind def
686.592 265.322 o
grestore
2 setlinecap
0.690 setgray
gsave
714.2 342.9 115.2 265.3 clipbox
829.44 265.322057 m
829.44 608.256 l
stroke
grestore
0 setlinecap
0.000 setgray
gsave
/o {
gsave
newpath
translate
0.8 setlinewidth
1 setlinejoin
0 setlinecap
0 0 m
0 -3.5 l

gsave
0.000 setgray
fill
grestore
stroke
grestore
} bind def
829.44 265.322 o
grestore
2 setlinecap
0.690 setgray
gsave
714.2 342.9 115.2 265.3 clipbox
115.2 276.145167 m
829.44 276.145167 l
stroke
grestore
0 setlinecap
0.000 setgray
gsave
/o {
gsave
newpath
translate
0.8 setlinewidth
1 setlinejoin
0 setlinecap
0 0 m
-3.5 0 l

gsave
0.000 setgray
fill
grestore
stroke
grestore
} bind def
115.2 276.145 o
grestore
/DejaVuSans findfont
10.000 scalefont
setfont
gsave
85.934375 272.348292 translate
0.000000 rotate
0.000000 0 m /zero glyphshow
6.362305 0 m /period glyphshow
9.541016 0 m /zero glyphshow
15.903320 0 m /zero glyphshow
grestore
2 setlinecap
0.690 setgray
gsave
714.2 342.9 115.2 265.3 clipbox
115.2 329.901849 m
829.44 329.901849 l
stroke
grestore
0 setlinecap
0.000 setgray
gsave
/o {
gsave
newpath
translate
0.8 setlinewidth
1 setlinejoin
0 setlinecap
0 0 m
-3.5 0 l

gsave
0.000 setgray
fill
grestore
stroke
grestore
} bind def
115.2 329.902 o
grestore
gsave
85.934375 326.104974 translate
0.000000 rotate
0.000000 0 m /zero glyphshow
6.362305 0 m /period glyphshow
9.541016 0 m /zero glyphshow
15.903320 0 m /one glyphshow
grestore
2 setlinecap
0.690 setgray
gsave
714.2 342.9 115.2 265.3 clipbox
115.2 383.658531 m
829.44 383.658531 l
stroke
grestore
0 setlinecap
0.000 setgray
gsave
/o {
gsave
newpath
translate
0.8 setlinewidth
1 setlinejoin
0 setlinecap
0 0 m
-3.5 0 l

gsave
0.000 setgray
fill
grestore
stroke
grestore
} bind def
115.2 383.659 o
grestore
gsave
85.934375 379.861656 translate
0.000000 rotate
0.000000 0 m /zero glyphshow
6.362305 0 m /period glyphshow
9.541016 0 m /zero glyphshow
15.903320 0 m /two glyphshow
grestore
2 setlinecap
0.690 setgray
gsave
714.2 342.9 115.2 265.3 clipbox
115.2 437.415212 m
829.44 437.415212 l
stroke
grestore
0 setlinecap
0.000 setgray
gsave
/o {
gsave
newpath
translate
0.8 setlinewidth
1 setlinejoin
0 setlinecap
0 0 m
-3.5 0 l

gsave
0.000 setgray
fill
grestore
stroke
grestore
} bind def
115.2 437.415 o
grestore
gsave
85.934375 433.618337 translate
0.000000 rotate
0.000000 0 m /zero glyphshow
6.362305 0 m /period glyphshow
9.541016 0 m /zero glyphshow
15.903320 0 m /three glyphshow
grestore
2 setlinecap
0.690 setgray
gsave
714.2 342.9 115.2 265.3 clipbox
115.2 491.171894 m
829.44 491.171894 l
stroke
grestore
0 setlinecap
0.000 setgray
gsave
/o {
gsave
newpath
translate
0.8 setlinewidth
1 setlinejoin
0 setlinecap
0 0 m
-3.5 0 l

gsave
0.000 setgray
fill
grestore
stroke
grestore
} bind def
115.2 491.172 o
grestore
gsave
85.934375 487.375019 translate
0.000000 rotate
0.000000 0 m /zero glyphshow
6.362305 0 m /period glyphshow
9.541016 0 m /zero glyphshow
15.903320 0 m /four glyphshow
grestore
2 setlinecap
0.690 setgray
gsave
714.2 342.9 115.2 265.3 clipbox
115.2 544.928576 m
829.44 544.928576 l
stroke
grestore
0 setlinecap
0.000 setgray
gsave
/o {
gsave
newpath
translate
0.8 setlinewidth
1 setlinejoin
0 setlinecap
0 0 m
-3.5 0 l

gsave
0.000 setgray
fill
grestore
stroke
grestore
} bind def
115.2 544.929 o
grestore
gsave
85.934375 541.131701 translate
0.000000 rotate
0.000000 0 m /zero glyphshow
6.362305 0 m /period glyphshow
9.541016 0 m /zero glyphshow
15.903320 0 m /five glyphshow
grestore
2 setlinecap
0.690 setgray
gsave
714.2 342.9 115.2 265.3 clipbox
115.2 598.685258 m
829.44 598.685258 l
stroke
grestore
0 setlinecap
0.000 setgray
gsave
/o {
gsave
newpath
translate
0.8 setlinewidth
1 setlinejoin
0 setlinecap
0 0 m
-3.5 0 l

gsave
0.000 setgray
fill
grestore
stroke
grestore
} bind def
115.2 598.685 o
grestore
gsave
85.934375 594.888383 translate
0.000000 rotate
0.000000 0 m /zero glyphshow
6.362305 0 m /period glyphshow
9.541016 0 m /zero glyphshow
15.903320 0 m /six glyphshow
grestore
gsave
79.856250 388.968716 translate
90.000000 rotate
0.000000 0 m /O glyphshow
7.871094 0 m /p glyphshow
14.218750 0 m /t glyphshow
18.139648 0 m /i glyphshow
20.917969 0 m /c glyphshow
26.416016 0 m /a glyphshow
32.543945 0 m /l glyphshow
35.322266 0 m /space glyphshow
38.500977 0 m /p glyphshow
44.848633 0 m /o glyphshow
50.966797 0 m /w glyphshow
59.145508 0 m /e glyphshow
65.297852 0 m /r glyphshow
69.409180 0 m /space glyphshow
72.587891 0 m /slash glyphshow
75.957031 0 m /m glyphshow
85.698242 0 m /W glyphshow
grestore
1.000 setlinewidth
0.122 0.467 0.706 setrgbcolor
gsave
714.2 342.9 115.2 265.3 clipbox
/o {
gsave
newpath
translate
1.0 setlinewidth
1 setlinejoin
0 setlinecap
0 -0.5 m
0.132602 -0.5 0.25979 -0.447317 0.353553 -0.353553 c
0.447317 -0.25979 0.5 -0.132602 0.5 0 c
0.5 0.132602 0.447317 0.25979 0.353553 0.353553 c
0.25979 0.447317 0.132602 0.5 0 0.5 c
-0.132602 0.5 -0.25979 0.447317 -0.353553 0.353553 c
-0.447317 0.25979 -0.5 0.132602 -0.5 0 c
-0.5 -0.132602 -0.447317 -0.25979 -0.353553 -0.353553 c
-0.25979 -0.447317 -0.132602 -0.5 0 -0.5 c
cl

gsave
0.122 0.467 0.706 setrgbcolor
fill
grestore
stroke
grestore
} bind def
115.2 304.795 o
115.771 303.074 o
116.343 301.527 o
116.914 300.264 o
117.486 298.768 o
118.057 297.414 o
118.628 296.151 o
119.2 294.838 o
119.771 293.84 o
120.343 292.791 o
120.914 291.671 o
121.485 290.664 o
122.057 289.92 o
122.628 288.648 o
123.199 287.864 o
123.771 287.202 o
124.342 286.326 o
124.914 285.614 o
125.485 284.85 o
126.056 284.086 o
126.628 283.73 o
127.199 283.374 o
127.771 282.987 o
128.342 282.59 o
128.913 282.325 o
129.485 281.887 o
130.056 281.541 o
130.628 281.612 o
131.199 281.551 o
131.77 281.511 o
132.342 281.582 o
132.913 281.388 o
133.485 281.755 o
134.056 281.836 o
134.627 281.857 o
135.199 282.152 o
135.77 282.519 o
136.342 282.916 o
136.913 283.557 o
137.484 284.127 o
138.056 284.779 o
138.627 285.369 o
139.198 286.255 o
139.77 287.12 o
140.341 287.966 o
140.913 289.197 o
141.484 290.602 o
142.055 291.916 o
142.627 292.853 o
143.198 294.807 o
143.77 296.497 o
144.341 298.147 o
144.912 299.878 o
145.484 301.812 o
146.055 304.103 o
146.627 306.251 o
147.198 308.766 o
147.769 311.321 o
148.341 313.693 o
148.912 316.341 o
149.484 319.079 o
150.055 322.225 o
150.626 325.046 o
151.198 328.375 o
151.769 331.551 o
152.34 334.341 o
152.912 335.797 o
153.483 337.599 o
154.055 338.77 o
154.626 339.788 o
155.197 340.052 o
155.769 340.256 o
156.34 340.337 o
156.912 339.971 o
157.483 339.177 o
158.054 338.342 o
158.626 337.426 o
159.197 336.815 o
159.769 335.359 o
160.34 333.934 o
160.911 332.345 o
161.483 330.991 o
162.054 329.444 o
162.626 327.346 o
163.197 325.86 o
163.768 324.231 o
164.34 322.348 o
164.911 320.881 o
165.482 319.375 o
166.054 318.112 o
166.625 316.676 o
167.197 314.783 o
167.768 312.95 o
168.339 311.484 o
168.911 309.896 o
169.482 308.46 o
170.054 307.045 o
170.625 305.436 o
171.196 303.787 o
171.768 302.352 o
172.339 300.957 o
172.911 299.786 o
173.482 298.422 o
174.053 297.353 o
174.625 296.11 o
175.196 294.909 o
175.768 294.023 o
176.339 292.761 o
176.91 291.845 o
177.482 290.653 o
178.053 289.625 o
178.625 288.658 o
179.196 287.915 o
179.767 286.998 o
180.339 286.174 o
180.91 285.593 o
181.481 285.044 o
182.053 284.3 o
182.624 283.995 o
183.196 283.598 o
183.767 283.374 o
184.338 282.855 o
184.91 282.641 o
185.481 282.447 o
186.053 282.356 o
186.624 282.05 o
187.195 282.02 o
187.767 282.091 o
188.338 281.755 o
188.91 281.938 o
189.481 281.898 o
190.052 282.223 o
190.624 282.6 o
191.195 282.743 o
191.767 282.967 o
192.338 283.303 o
192.909 284.056 o
193.481 284.606 o
194.052 285.064 o
194.623 286.204 o
195.195 286.632 o
195.766 287.497 o
196.338 288.892 o
196.909 289.778 o
197.48 290.938 o
198.052 292.14 o
198.623 293.636 o
199.195 295.215 o
199.766 296.681 o
200.337 298.32 o
200.909 300.397 o
201.48 301.965 o
202.052 304.317 o
202.623 306.821 o
203.194 309.204 o
203.766 311.341 o
204.337 313.877 o
204.909 316.249 o
205.48 318.978 o
206.051 321.675 o
206.623 324.658 o
207.194 327.662 o
207.766 331.083 o
208.337 334.117 o
208.908 337.731 o
209.48 341.152 o
210.051 344.665 o
210.622 348.696 o
211.194 352.494 o
211.765 356.159 o
212.337 359.437 o
212.908 363.062 o
213.479 366.727 o
214.051 370.881 o
214.622 374.903 o
215.194 378.558 o
215.765 382.508 o
216.336 386.102 o
216.908 390.185 o
217.479 394.043 o
218.051 397.821 o
218.622 400.967 o
219.193 404.133 o
219.765 407.584 o
220.336 411.911 o
220.908 415.841 o
221.479 419.527 o
222.05 423.66 o
222.622 427.03 o
223.193 431.296 o
223.764 435.074 o
224.336 438.902 o
224.907 442.038 o
225.479 445.53 o
226.05 448.991 o
226.621 453.298 o
227.193 456.984 o
227.764 460.516 o
228.336 464.752 o
228.907 468.193 o
229.478 471.858 o
230.05 475.381 o
230.621 479.504 o
231.193 482.721 o
231.764 486.091 o
232.335 489.533 o
232.907 493.015 o
233.478 496.67 o
234.05 500.304 o
234.621 503.583 o
235.192 507.014 o
235.764 510.415 o
236.335 513.662 o
236.906 516.859 o
237.478 520.178 o
238.049 523.182 o
238.621 525.931 o
239.192 528.689 o
239.763 531.673 o
240.335 534.483 o
240.906 537.211 o
241.478 540.072 o
242.049 542.831 o
242.62 545.59 o
243.192 548.227 o
243.763 550.671 o
244.335 553.053 o
244.906 555.802 o
245.477 557.848 o
246.049 559.844 o
246.62 562.176 o
247.192 563.988 o
247.763 565.902 o
248.334 567.704 o
248.906 569.129 o
249.477 570.738 o
250.049 572.693 o
250.62 574.393 o
251.191 575.93 o
251.763 577.539 o
252.334 579.494 o
252.905 580.868 o
253.477 581.937 o
254.048 583.037 o
254.62 584.34 o
255.191 585.012 o
255.762 586.071 o
256.334 587.099 o
256.905 588.168 o
257.477 589.166 o
258.048 589.614 o
258.619 590.316 o
259.191 590.296 o
259.762 590.713 o
260.334 591.223 o
260.905 591.335 o
261.476 591.894 o
262.048 591.843 o
262.619 591.833 o
263.191 591.884 o
263.762 591.446 o
264.333 591.212 o
264.905 590.948 o
265.476 590.398 o
266.047 590.031 o
266.619 589.268 o
267.19 588.606 o
267.762 588.29 o
268.333 587.272 o
268.904 586.346 o
269.476 585.338 o
270.047 584.717 o
270.619 583.495 o
271.19 582.08 o
271.761 580.98 o
272.333 579.972 o
272.904 578.303 o
273.476 576.806 o
274.047 575.004 o
274.618 573.507 o
275.19 571.603 o
275.761 569.771 o
276.333 568.193 o
276.904 566.523 o
277.475 565.159 o
278.047 563.367 o
278.618 561.809 o
279.19 559.213 o
279.761 556.963 o
280.332 554.906 o
280.904 552.198 o
281.475 549.693 o
282.046 547.382 o
282.618 544.827 o
283.189 541.894 o
283.761 539.736 o
284.332 536.682 o
284.903 533.343 o
285.475 530.237 o
286.046 527.651 o
286.618 524.841 o
287.189 521.655 o
287.76 519.303 o
288.332 516.319 o
288.903 512.827 o
289.475 509.406 o
290.046 506.525 o
290.617 503.053 o
291.189 499.358 o
291.76 495.967 o
292.332 492.282 o
292.903 489.136 o
293.474 485.583 o
294.046 481.815 o
294.617 479.28 o
295.188 477.132 o
295.76 475.31 o
296.331 474.444 o
296.903 473.742 o
297.474 473.375 o
298.045 473.762 o
298.617 474.292 o
299.188 475.228 o
299.76 476.521 o
300.331 478.018 o
300.902 479.504 o
301.474 481.286 o
302.045 483.108 o
302.617 485.43 o
303.188 487.659 o
303.759 489.838 o
304.331 492.444 o
304.902 495.336 o
305.474 498.289 o
306.045 500.61 o
306.616 503.257 o
307.188 505.976 o
307.759 508.724 o
308.33 511.881 o
308.902 514.385 o
309.473 517.378 o
310.045 520.086 o
310.616 522.836 o
311.187 525.309 o
311.759 528.394 o
312.33 531.113 o
312.902 533.617 o
313.473 536.376 o
314.044 538.779 o
314.616 541.579 o
315.187 544.124 o
315.759 546.588 o
316.33 549.327 o
316.901 551.658 o
317.473 554.061 o
318.044 556.657 o
318.616 558.521 o
319.187 560.618 o
319.758 562.695 o
320.33 564.385 o
320.901 566.197 o
321.473 567.622 o
322.044 568.997 o
322.615 570.687 o
323.187 572.163 o
323.758 573.823 o
324.329 575.584 o
324.901 577.02 o
325.472 578.72 o
326.044 580.135 o
326.615 581.326 o
327.186 582.538 o
327.758 583.373 o
328.329 584.126 o
328.901 585.175 o
329.472 585.969 o
330.043 587.099 o
330.615 587.69 o
331.186 588.799 o
331.758 589.247 o
332.329 589.736 o
332.9 590.072 o
333.472 590.408 o
334.043 590.968 o
334.615 590.927 o
335.186 590.958 o
335.757 590.897 o
336.329 590.764 o
336.9 590.835 o
337.471 590.316 o
338.043 589.828 o
338.614 589.4 o
339.186 589.003 o
339.757 588.484 o
340.328 587.893 o
340.9 586.987 o
341.471 585.796 o
342.043 585.246 o
342.614 584.238 o
343.185 582.976 o
343.757 581.866 o
344.328 580.736 o
344.9 579.82 o
345.471 578.181 o
346.042 576.643 o
346.614 575.258 o
347.185 573.568 o
347.757 571.97 o
348.328 569.903 o
348.899 568.6 o
349.471 566.849 o
350.042 565.006 o
350.614 563.061 o
351.185 560.944 o
351.756 558.816 o
352.328 556.708 o
352.899 554.865 o
353.47 552.564 o
354.042 550.243 o
354.613 547.739 o
355.185 545.305 o
355.756 542.658 o
356.327 539.869 o
356.899 537.649 o
357.47 534.472 o
358.042 531.072 o
358.613 528.252 o
359.184 525.259 o
359.756 522.438 o
360.327 519.384 o
360.899 516.35 o
361.47 513.01 o
362.041 509.396 o
362.613 506.372 o
363.184 503.287 o
363.756 499.633 o
364.327 496.313 o
364.898 493.005 o
365.47 489.523 o
366.041 486.529 o
366.612 483.261 o
367.184 479.891 o
367.755 476.562 o
368.327 473.487 o
368.898 469.883 o
369.469 466.493 o
370.041 463.052 o
370.612 459.569 o
371.184 456.24 o
371.755 452.168 o
372.326 448.828 o
372.898 445 o
373.469 441.579 o
374.041 438.383 o
374.612 434.85 o
375.183 431.398 o
375.755 428.11 o
376.326 423.64 o
376.898 420.301 o
377.469 417.022 o
378.04 413.652 o
378.612 409.936 o
379.183 406.678 o
379.754 403.145 o
380.326 400.498 o
380.897 397.668 o
381.469 394.43 o
382.04 390.948 o
382.611 387.589 o
383.183 384.066 o
383.754 381.154 o
384.326 378.273 o
384.897 374.883 o
385.468 371.553 o
386.04 368.152 o
386.611 365.455 o
387.183 362.237 o
387.754 359.173 o
388.325 356.251 o
388.897 353.39 o
389.468 350.417 o
390.04 347.699 o
390.611 344.807 o
391.182 341.906 o
391.754 339.564 o
392.325 337.09 o
392.897 334.066 o
393.468 331.694 o
394.039 329.21 o
394.611 326.705 o
395.182 323.834 o
395.753 321.869 o
396.325 319.639 o
396.896 317.735 o
397.468 315.923 o
398.039 314.386 o
398.61 312.176 o
399.182 310.273 o
399.753 308.644 o
400.325 306.791 o
400.896 305.243 o
401.467 303.309 o
402.039 301.476 o
402.61 300.203 o
403.182 298.656 o
403.753 297.353 o
404.324 296.131 o
404.896 294.797 o
405.467 293.443 o
406.039 292.476 o
406.61 291.285 o
407.181 290.46 o
407.753 289.666 o
408.324 288.648 o
408.895 287.843 o
409.467 287.171 o
410.038 286.184 o
410.61 285.278 o
411.181 284.708 o
411.752 284.219 o
412.324 283.649 o
412.895 283.252 o
413.467 282.844 o
414.038 282.101 o
414.609 281.908 o
415.181 281.999 o
415.752 281.694 o
416.324 281.653 o
416.895 281.399 o
417.466 281.327 o
418.038 281.317 o
418.609 281.48 o
419.181 281.684 o
419.752 281.562 o
420.323 281.908 o
420.895 282.305 o
421.466 282.305 o
422.038 282.855 o
422.609 283.028 o
423.18 283.73 o
423.752 284.402 o
424.323 284.952 o
424.894 285.746 o
425.466 286.734 o
426.037 287.813 o
426.609 288.811 o
427.18 290.144 o
427.751 291.498 o
428.323 293.138 o
428.894 294.359 o
429.466 296.1 o
430.037 297.536 o
430.608 299.643 o
431.18 301.415 o
431.751 303.706 o
432.323 305.854 o
432.894 308.134 o
433.465 310.7 o
434.037 313.144 o
434.608 315.536 o
435.18 318.234 o
435.751 321.095 o
436.322 324.21 o
436.894 327.316 o
437.465 330.869 o
438.036 333.231 o
438.608 335.481 o
439.179 336.723 o
439.751 337.975 o
440.322 338.943 o
440.893 339.89 o
441.465 339.808 o
442.036 339.788 o
442.608 339.523 o
443.179 338.933 o
443.75 338.138 o
444.322 337.171 o
444.893 336.041 o
445.465 334.728 o
446.036 333.598 o
446.607 332.162 o
447.179 330.808 o
447.75 329.23 o
448.322 327.509 o
448.893 325.87 o
449.464 324.465 o
450.036 322.358 o
450.607 320.657 o
451.178 319.171 o
451.75 317.807 o
452.321 316.422 o
452.893 314.569 o
453.464 312.808 o
454.035 311.291 o
454.607 309.692 o
455.178 307.951 o
455.75 306.434 o
456.321 304.887 o
456.892 303.278 o
457.464 302.178 o
458.035 300.712 o
458.607 299.48 o
459.178 298.361 o
459.749 297.271 o
460.321 295.937 o
460.892 294.767 o
461.464 293.667 o
462.035 292.669 o
462.606 291.671 o
463.178 290.735 o
463.749 290.063 o
464.321 289.177 o
464.892 288.261 o
465.463 287.691 o
466.035 286.876 o
466.606 286.194 o
467.177 285.298 o
467.749 284.708 o
468.32 284.199 o
468.892 283.954 o
469.463 283.608 o
470.034 283.435 o
470.606 283.211 o
471.177 282.712 o
471.749 282.57 o
472.32 282.183 o
472.891 282.122 o
473.463 282.091 o
474.034 282.03 o
474.606 281.867 o
475.177 281.959 o
475.748 282.244 o
476.32 282.478 o
476.891 282.804 o
477.463 282.804 o
478.034 283.455 o
478.605 283.7 o
479.177 284.27 o
479.748 284.881 o
480.319 285.553 o
480.891 286.347 o
481.462 287.385 o
482.034 288.475 o
482.605 289.371 o
483.176 290.745 o
483.748 292.007 o
484.319 293.27 o
484.891 295.072 o
485.462 296.538 o
486.033 298.391 o
486.605 300.04 o
487.176 302.24 o
487.748 304.459 o
488.319 306.892 o
488.89 308.908 o
489.462 311.311 o
490.033 313.948 o
490.605 316.453 o
491.176 318.855 o
491.747 321.93 o
492.319 324.669 o
492.89 327.896 o
493.462 331.012 o
494.033 334.076 o
494.604 337.385 o
495.176 340.898 o
495.747 344.43 o
496.318 348.299 o
496.89 352.178 o
497.461 355.783 o
498.033 359.315 o
498.604 362.95 o
499.175 366.656 o
499.747 370.759 o
500.318 374.557 o
500.89 378.405 o
501.461 382.294 o
502.032 386.183 o
502.604 390.062 o
503.175 393.85 o
503.747 397.546 o
504.318 400.315 o
504.889 403.614 o
505.461 407.36 o
506.032 411.372 o
506.604 415.587 o
507.175 419.517 o
507.746 423.569 o
508.318 427.244 o
508.889 431.561 o
509.46 435.053 o
510.032 438.932 o
510.603 442.323 o
511.175 445.947 o
511.746 449.714 o
512.317 453.369 o
512.889 457.258 o
513.46 460.842 o
514.032 464.507 o
514.603 468.224 o
515.174 471.655 o
515.746 475.636 o
516.317 479.352 o
516.889 482.691 o
517.46 486.01 o
518.031 489.533 o
518.603 493.117 o
519.174 496.517 o
519.746 499.775 o
520.317 503.257 o
520.888 506.912 o
521.46 509.905 o
522.031 513.326 o
522.602 516.37 o
523.174 519.303 o
523.745 522.581 o
524.317 525.187 o
524.888 528.323 o
525.459 531.001 o
526.031 534.076 o
526.602 536.926 o
527.174 539.919 o
527.745 542.526 o
528.316 545.366 o
528.888 547.912 o
529.459 550.304 o
530.031 552.819 o
530.602 554.998 o
531.173 557.39 o
531.745 559.885 o
532.316 562.216 o
532.888 563.876 o
533.459 565.515 o
534.03 567.093 o
534.602 568.824 o
535.173 570.83 o
535.745 572.173 o
536.316 573.915 o
536.887 575.431 o
537.459 577.01 o
538.03 578.761 o
538.601 580.105 o
539.173 581.499 o
539.744 582.701 o
540.316 583.974 o
540.887 584.971 o
541.458 586.203 o
542.03 587.069 o
542.601 588.066 o
543.173 588.535 o
543.744 589.206 o
544.315 589.746 o
544.887 590.53 o
545.458 590.805 o
546.03 591.406 o
546.601 591.457 o
547.172 591.64 o
547.744 591.67 o
548.315 591.925 o
548.887 591.599 o
549.458 591.518 o
550.029 591.375 o
550.601 591.416 o
551.172 591.172 o
551.743 590.662 o
552.315 589.869 o
552.886 589.329 o
553.458 588.188 o
554.029 587.435 o
554.6 586.325 o
555.172 585.47 o
555.743 584.503 o
556.315 583.22 o
556.886 581.897 o
557.457 580.716 o
558.029 579.453 o
558.6 578.099 o
559.172 576.002 o
559.743 574.271 o
560.314 573.059 o
560.886 571.267 o
561.457 569.536 o
562.029 567.521 o
562.6 566.431 o
563.171 564.385 o
563.743 562.572 o
564.314 560.109 o
564.886 558.459 o
565.457 556.067 o
566.028 553.857 o
566.6 551.648 o
567.171 549.062 o
567.742 546.833 o
568.314 544.43 o
568.885 541.589 o
569.457 539.268 o
570.028 535.959 o
570.599 532.935 o
571.171 530.268 o
571.742 527.448 o
572.314 524.271 o
572.885 521.522 o
573.456 518.58 o
574.028 515.485 o
574.599 512.471 o
575.171 508.561 o
575.742 505.568 o
576.313 502.605 o
576.885 499.388 o
577.456 495.937 o
578.028 492.444 o
578.599 488.83 o
579.17 485.247 o
579.742 481.937 o
580.313 479.117 o
580.884 476.959 o
581.456 475.238 o
582.027 474.251 o
582.599 473.579 o
583.17 473.406 o
583.741 473.905 o
584.313 474.424 o
584.884 475.401 o
585.456 476.908 o
586.027 478.171 o
586.598 479.81 o
587.17 481.561 o
587.741 483.292 o
588.313 485.44 o
588.884 487.772 o
589.455 490.022 o
590.027 492.271 o
590.598 495.02 o
591.17 497.932 o
591.741 500.722 o
592.312 503.237 o
592.884 505.721 o
593.455 508.286 o
594.026 511.361 o
594.598 514.69 o
595.169 517.236 o
595.741 520.361 o
596.312 523.069 o
596.883 525.32 o
597.455 528.201 o
598.026 530.634 o
598.598 533.454 o
599.169 535.888 o
599.74 538.83 o
600.312 540.927 o
600.883 543.798 o
601.455 546.578 o
602.026 548.787 o
602.597 550.834 o
603.169 553.196 o
603.74 555.965 o
604.312 557.92 o
604.883 560.099 o
605.454 562.094 o
606.026 563.835 o
606.597 565.647 o
607.169 567.266 o
607.74 568.508 o
608.311 570.219 o
608.883 572.021 o
609.454 573.324 o
610.025 574.535 o
610.597 576.022 o
611.168 577.447 o
611.74 579.239 o
612.311 580.298 o
612.882 581.387 o
613.454 583.088 o
614.025 583.79 o
614.597 584.737 o
615.168 585.888 o
615.739 586.274 o
616.311 587.099 o
616.882 587.791 o
617.454 588.881 o
618.025 589.074 o
618.596 588.973 o
619.168 589.532 o
619.739 589.889 o
620.311 590.327 o
620.882 590.245 o
621.453 590.713 o
622.025 590.245 o
622.596 589.97 o
623.167 589.736 o
623.739 589.39 o
624.31 589.247 o
624.882 589.064 o
625.453 587.995 o
626.024 587.486 o
626.596 586.661 o
627.167 586.071 o
627.739 585.053 o
628.31 584.004 o
628.881 583.21 o
629.453 582.192 o
630.024 580.858 o
630.596 579.147 o
631.167 577.692 o
631.738 576.266 o
632.31 574.485 o
632.881 572.794 o
633.453 571.461 o
634.024 569.923 o
634.595 567.948 o
635.167 566.676 o
635.738 565.047 o
636.31 563.245 o
636.881 561.402 o
637.452 559.355 o
638.024 557.411 o
638.595 554.998 o
639.166 552.707 o
639.738 550.07 o
640.309 547.82 o
640.881 545.59 o
641.452 542.719 o
642.023 539.879 o
642.595 537.7 o
643.166 534.371 o
643.738 531.143 o
644.309 528.181 o
644.88 525.676 o
645.452 522.836 o
646.023 520.066 o
646.595 517.195 o
647.166 513.601 o
647.737 509.895 o
648.309 506.871 o
648.88 503.42 o
649.452 500.274 o
650.023 496.924 o
650.594 493.727 o
651.166 490.123 o
651.737 487.059 o
652.308 484.177 o
652.88 480.756 o
653.451 477.448 o
654.023 474.027 o
654.594 470.362 o
655.165 467.277 o
655.737 462.99 o
656.308 459.742 o
656.88 456.352 o
657.451 452.493 o
658.022 448.859 o
658.594 445.163 o
659.165 441.61 o
659.737 438.403 o
660.308 434.88 o
660.879 431.378 o
661.451 427.621 o
662.022 424.2 o
662.594 420.718 o
663.165 417.256 o
663.736 413.785 o
664.308 410.394 o
664.879 406.933 o
665.45 403.675 o
666.022 400.794 o
666.593 397.637 o
667.165 394.644 o
667.736 391.427 o
668.307 387.863 o
668.879 384.911 o
669.45 381.358 o
670.022 378.222 o
670.593 374.74 o
671.164 372.184 o
671.736 368.275 o
672.307 365.404 o
672.879 362.024 o
673.45 359.437 o
674.021 356.342 o
674.593 353.492 o
675.164 350.519 o
675.736 347.668 o
676.307 344.4 o
676.878 341.895 o
677.45 338.892 o
678.021 336.051 o
678.593 333.618 o
679.164 331.022 o
679.735 328.487 o
680.307 325.921 o
680.878 323.895 o
681.449 321.38 o
682.021 319.252 o
682.592 317.349 o
683.164 315.343 o
683.735 313.439 o
684.306 311.82 o
684.878 310.028 o
685.449 308.236 o
686.021 306.393 o
686.592 304.703 o
687.163 303.247 o
687.735 301.588 o
688.306 300.163 o
688.878 298.676 o
689.449 297.108 o
690.02 296.009 o
690.592 294.624 o
691.163 293.514 o
691.735 292.282 o
692.306 291.498 o
692.877 290.419 o
693.449 289.503 o
694.02 288.464 o
694.591 287.752 o
695.163 286.947 o
695.734 286.275 o
696.306 285.491 o
696.877 284.921 o
697.448 284.239 o
698.02 283.628 o
698.591 283.343 o
699.163 282.61 o
699.734 282.315 o
700.305 282.234 o
700.877 281.796 o
701.448 281.704 o
702.02 281.266 o
702.591 281.215 o
703.162 280.981 o
703.734 281.002 o
704.305 281.327 o
704.877 281.307 o
705.448 281.5 o
706.019 281.684 o
706.591 281.867 o
707.162 282.305 o
707.734 282.57 o
708.305 283.241 o
708.876 283.781 o
709.448 284.27 o
710.019 285.003 o
710.59 285.97 o
711.162 286.988 o
711.733 287.823 o
712.305 289.391 o
712.876 290.012 o
713.447 291.478 o
714.019 293.005 o
714.59 294.319 o
715.162 296.212 o
715.733 297.933 o
716.304 299.633 o
716.876 301.517 o
717.447 303.757 o
718.019 306.058 o
718.59 308.511 o
719.161 310.975 o
719.733 313.663 o
720.304 316.147 o
720.876 318.611 o
721.447 321.462 o
722.018 324.557 o
722.59 327.916 o
723.161 331.113 o
723.732 333.638 o
724.304 335.736 o
724.875 337.12 o
725.447 338.23 o
726.018 338.994 o
726.589 339.788 o
727.161 339.798 o
727.732 339.879 o
728.304 339.91 o
728.875 338.892 o
729.446 338.362 o
730.018 337.253 o
730.589 336.54 o
731.161 334.758 o
731.732 333.832 o
732.303 332.427 o
732.875 330.716 o
733.446 329.566 o
734.018 327.306 o
734.589 325.88 o
735.16 323.977 o
735.732 322.602 o
736.303 321.278 o
736.874 319.415 o
737.446 318.01 o
738.017 316.453 o
738.589 314.813 o
739.16 312.899 o
739.731 311.494 o
740.303 309.886 o
740.874 308.348 o
741.446 307.086 o
742.017 305.355 o
742.588 303.919 o
743.16 302.28 o
743.731 300.987 o
744.303 299.847 o
744.874 298.686 o
745.445 297.312 o
746.017 296.314 o
746.588 294.97 o
747.16 293.881 o
747.731 292.863 o
748.302 291.987 o
748.874 291.101 o
749.445 289.971 o
750.017 289.391 o
750.588 288.699 o
751.159 287.803 o
751.731 287.12 o
752.302 286.245 o
752.873 285.553 o
753.445 285.013 o
754.016 284.412 o
754.588 284.229 o
755.159 283.486 o
755.73 283.221 o
756.302 283.038 o
756.873 282.885 o
757.445 282.447 o
758.016 282.427 o
758.587 282.59 o
759.159 282.692 o
759.73 282.437 o
760.302 282.244 o
760.873 282.508 o
761.444 282.804 o
762.016 283.017 o
762.587 283.415 o
763.159 283.537 o
763.73 283.812 o
764.301 284.137 o
764.873 284.952 o
765.444 285.502 o
766.015 286.062 o
766.587 286.805 o
767.158 287.935 o
767.73 288.882 o
768.301 290.328 o
768.872 291.122 o
769.444 292.506 o
770.015 294.084 o
770.587 295.388 o
771.158 297.098 o
771.729 298.717 o
772.301 300.397 o
772.872 302.402 o
773.444 304.479 o
774.015 306.821 o
774.586 309.366 o
775.158 311.983 o
775.729 314.314 o
776.301 316.728 o
776.872 319.303 o
777.443 322.103 o
778.015 325.198 o
778.586 328.364 o
779.158 331.694 o
779.729 335.135 o
780.3 338.281 o
780.872 341.783 o
781.443 345.133 o
782.014 348.971 o
782.586 352.362 o
783.157 356.078 o
783.729 359.59 o
784.3 363.388 o
784.871 367.012 o
785.443 371.034 o
786.014 374.801 o
786.586 378.578 o
787.157 382.579 o
787.728 386.479 o
788.3 390.266 o
788.871 393.982 o
789.443 397.698 o
790.014 400.325 o
790.585 403.96 o
791.157 407.717 o
791.728 411.962 o
792.3 415.709 o
792.871 419.639 o
793.442 423.457 o
794.014 427.377 o
794.585 431.205 o
795.156 434.809 o
795.728 438.433 o
796.299 441.915 o
796.871 445.754 o
797.442 449.287 o
798.013 453.094 o
798.585 457.238 o
799.156 460.638 o
799.728 464.121 o
800.299 468.101 o
800.87 471.736 o
801.442 475.615 o
802.013 479.016 o
802.585 482.437 o
803.156 485.888 o
803.727 489.248 o
804.299 492.913 o
804.87 496.598 o
805.442 499.663 o
806.013 503.074 o
806.584 506.24 o
807.156 509.457 o
807.727 513.214 o
808.298 517.073 o
808.87 519.791 o
809.441 523.161 o
810.013 526.165 o
810.584 528.985 o
811.155 531.907 o
811.727 534.992 o
812.298 537.761 o
812.87 540.561 o
813.441 543.585 o
814.012 546.303 o
814.584 548.594 o
815.155 551.231 o
815.727 553.399 o
816.298 555.986 o
816.869 558.235 o
817.441 560.577 o
818.012 562.756 o
818.584 564.364 o
819.155 566.553 o
819.726 568.274 o
820.298 569.934 o
820.869 571.277 o
821.441 573.079 o
822.012 575.004 o
822.583 576.552 o
823.155 578.262 o
823.726 579.636 o
824.297 580.939 o
824.869 581.774 o
825.44 583.21 o
826.012 584.676 o
826.583 585.501 o
827.154 586.183 o
827.726 587.303 o
828.297 588.025 o
828.869 588.973 o
829.44 589.573 o
830.011 590.143 o
grestore
1.500 setlinewidth
2 setlinecap
1.000 0.647 0.000 setrgbcolor
gsave
714.2 342.9 115.2 265.3 clipbox
155.19744 340.052413 m
155.768832 340.256037 l
156.340224 340.337487 l
156.911616 339.970964 l
159.197184 336.814958 l
162.054144 329.443777 l
162.625536 327.346289 l
163.76832 324.231007 l
164.339712 322.347569 l
167.196672 314.782863 l
168.339456 311.484158 l
171.196416 303.787113 l
172.3392 300.956743 l
176.338944 292.760869 l
176.910336 291.844561 l
178.05312 289.625062 l
178.624512 288.657865 l
179.767296 286.998315 l
180.338688 286.173655 l
182.624256 283.99488 l
183.195648 283.597798 l
183.76704 283.373812 l
184.338432 282.854587 l
185.481216 282.44734 l
186.052608 282.355693 l
186.624 282.050257 l
187.766784 282.090982 l
188.338176 281.755019 l
188.909568 281.938248 l
189.48096 281.897523 l
190.623744 282.600041 l
191.766528 282.966564 l
192.33792 283.30256 l
192.909312 284.055968 l
194.052096 285.063889 l
194.623488 286.204182 l
195.19488 286.631792 l
195.766272 287.49721 l
196.337664 288.892016 l
196.909056 289.777796 l
198.05184 292.139832 l
200.337408 298.319798 l
200.9088 300.396761 l
201.480192 301.964664 l
204.908544 316.248955 l
207.194112 327.661987 l
210.622464 348.696488 l
212.33664 359.437399 l
214.050816 370.881056 l
215.764992 382.508138 l
216.907776 390.184592 l
218.05056 397.820647 l
219.764736 407.584489 l
220.90752 415.84119 l
223.193088 431.296399 l
224.907264 442.037636 l
226.050048 448.991144 l
227.192832 456.983622 l
227.764224 460.516251 l
228.907008 468.193031 l
232.33536 489.532804 l
236.906496 516.859118 l
238.04928 523.181555 l
244.905984 555.802087 l
248.334336 567.703816 l
249.47712 570.737974 l
250.619904 574.393102 l
251.762688 577.539008 l
252.33408 579.493797 l
252.905472 580.868339 l
254.048256 583.036851 l
254.619648 584.340043 l
255.19104 585.011839 l
257.476608 589.165764 l
258.048 589.613737 l
258.619392 590.316157 l
259.190784 590.295958 l
260.333568 591.222527 l
260.90496 591.334602 l
261.476352 591.894323 l
262.619136 591.833399 l
263.190528 591.884223 l
263.76192 591.446351 l
264.904704 590.947554 l
265.476096 590.397933 l
266.047488 590.03141 l
267.190272 588.605717 l
267.761664 588.290345 l
269.47584 585.337637 l
270.047232 584.716666 l
272.3328 579.972394 l
278.618112 561.809152 l
279.760896 556.962905 l
280.332288 554.906142 l
281.475072 549.693373 l
282.617856 544.826927 l
283.189248 541.894419 l
283.76064 539.736332 l
287.188992 521.654539 l
287.760384 519.302603 l
288.903168 512.827366 l
294.617088 479.280265 l
295.759872 475.309764 l
296.902656 473.741697 l
297.474048 473.375175 l
297.474048 473.375175 l
stroke
grestore
0.000 0.502 0.000 setrgbcolor
gsave
714.2 342.9 115.2 265.3 clipbox
298.04544 473.762223 m
298.616832 474.291645 l
299.188224 475.228314 l
300.331008 478.017797 l
301.473792 481.285878 l
302.045184 483.108392 l
304.330752 492.444462 l
306.044928 500.609939 l
307.759104 508.724265 l
308.330496 511.880597 l
309.47328 517.37844 l
315.1872 544.124181 l
318.615552 558.520546 l
319.758336 562.694671 l
321.472512 567.622367 l
322.043904 568.996909 l
324.329472 575.58422 l
327.186432 582.538054 l
329.472 585.969034 l
330.043392 587.099227 l
330.614784 587.689573 l
331.186176 588.799241 l
332.900352 590.072134 l
333.471744 590.408032 l
334.043136 590.968079 l
336.900096 590.835479 l
338.614272 589.400013 l
339.757056 588.483869 l
340.328448 587.893197 l
340.89984 586.987153 l
341.471232 585.796035 l
342.042624 585.246088 l
342.614016 584.238068 l
343.7568 581.865933 l
344.899584 579.819595 l
346.042368 576.643064 l
346.61376 575.258422 l
350.042112 565.005882 l
351.756288 558.815719 l
354.041856 550.24332 l
356.898816 537.648944 l
359.184384 525.258518 l
360.89856 516.349895 l
371.183616 456.240151 l
372.3264 448.828245 l
373.469184 441.579238 l
375.18336 431.398048 l
375.754752 428.109768 l
376.326144 423.640144 l
380.325888 400.498381 l
381.468672 394.430392 l
383.75424 381.154121 l
384.897024 374.882508 l
386.6112 365.454563 l
388.325376 356.250768 l
391.753728 339.563716 l
392.32512 337.089932 l
392.896512 334.065874 l
394.610688 326.705118 l
395.18208 323.83386 l
399.181824 310.272515 l
400.896 305.243007 l
402.038784 301.475967 l
402.610176 300.203335 l
403.75296 297.352601 l
406.60992 291.284612 l
410.038272 286.18382 l
410.609664 285.27771 l
412.32384 283.64872 l
413.466624 282.84439 l
414.038016 282.101147 l
414.609408 281.90772 l
415.1808 281.999367 l
415.752192 281.693899 l
416.323584 281.653207 l
416.894976 281.398661 l
418.03776 281.317211 l
419.180544 281.683734 l
419.751936 281.56156 l
420.89472 282.30477 l
421.466112 282.30477 l
422.037504 282.854587 l
422.608896 283.027651 l
423.75168 284.402095 l
424.323072 284.951912 l
424.894464 285.746045 l
426.60864 288.810567 l
427.751424 291.498401 l
428.322816 293.137589 l
428.894208 294.359332 l
431.179776 301.41488 l
434.608128 315.536109 l
435.750912 321.095201 l
438.03648 333.231179 l
438.607872 335.481141 l
440.322048 338.942745 l
440.322048 338.942745 l
stroke
grestore
0.800 setlinewidth
0 setlinejoin
[] 0 setdash
0.000 setgray
gsave
115.2 265.322057 m
115.2 608.256 l
stroke
grestore
gsave
829.44 265.322057 m
829.44 608.256 l
stroke
grestore
gsave
115.2 265.322057 m
829.44 265.322057 l
stroke
grestore
gsave
115.2 608.256 m
829.44 608.256 l
stroke
grestore
/DejaVuSans findfont
12.000 scalefont
setfont
gsave
332.132500 614.256000 translate
0.000000 rotate
0.000000 0 m /one glyphshow
7.634766 0 m /zero glyphshow
15.269531 0 m /space glyphshow
19.083984 0 m /k glyphshow
26.033203 0 m /H glyphshow
35.056641 0 m /z glyphshow
41.355469 0 m /space glyphshow
45.169922 0 m /m glyphshow
56.859375 0 m /o glyphshow
64.201172 0 m /d glyphshow
71.818359 0 m /u glyphshow
79.423828 0 m /l glyphshow
82.757812 0 m /a glyphshow
90.111328 0 m /t glyphshow
94.816406 0 m /i glyphshow
98.150391 0 m /o glyphshow
105.492188 0 m /n glyphshow
113.097656 0 m /space glyphshow
116.912109 0 m /f glyphshow
121.136719 0 m /r glyphshow
125.820312 0 m /e glyphshow
133.203125 0 m /q glyphshow
140.820312 0 m /u glyphshow
148.425781 0 m /e glyphshow
155.808594 0 m /n glyphshow
163.414062 0 m /c glyphshow
170.011719 0 m /y glyphshow
177.113281 0 m /comma glyphshow
180.927734 0 m /space glyphshow
184.742188 0 m /five glyphshow
192.376953 0 m /period glyphshow
196.191406 0 m /zero glyphshow
203.826172 0 m /space glyphshow
207.640625 0 m /V glyphshow
215.849609 0 m /space glyphshow
219.664062 0 m /a glyphshow
227.017578 0 m /m glyphshow
238.707031 0 m /p glyphshow
246.324219 0 m /l glyphshow
249.658203 0 m /i glyphshow
252.992188 0 m /t glyphshow
257.697266 0 m /u glyphshow
265.302734 0 m /d glyphshow
272.919922 0 m /e glyphshow
grestore
1.000 setlinewidth
0 setlinecap
0.800 setgray
gsave
686.611875 413.281216 m
822.44 413.281216 l
823.773333 413.281216 824.44 413.947883 824.44 415.281216 c
824.44 458.296841 l
824.44 459.630174 823.773333 460.296841 822.44 460.296841 c
686.611875 460.296841 l
685.278542 460.296841 684.611875 459.630174 684.611875 458.296841 c
684.611875 415.281216 l
684.611875 413.947883 685.278542 413.281216 686.611875 413.281216 c
cl
gsave
1.000 setgray
fill
grestore
stroke
grestore
1 setlinejoin
[] 0 setdash
0.122 0.467 0.706 setrgbcolor
gsave
/o {
gsave
newpath
translate
1.0 setlinewidth
1 setlinejoin
0 setlinecap
0 -0.5 m
0.132602 -0.5 0.25979 -0.447317 0.353553 -0.353553 c
0.447317 -0.25979 0.5 -0.132602 0.5 0 c
0.5 0.132602 0.447317 0.25979 0.353553 0.353553 c
0.25979 0.447317 0.132602 0.5 0 0.5 c
-0.132602 0.5 -0.25979 0.447317 -0.353553 0.353553 c
-0.447317 0.25979 -0.5 0.132602 -0.5 0 c
-0.5 -0.132602 -0.447317 -0.25979 -0.353553 -0.353553 c
-0.25979 -0.447317 -0.132602 -0.5 0 -0.5 c
cl

gsave
0.122 0.467 0.706 setrgbcolor
fill
grestore
stroke
grestore
} bind def
698.612 452.203 o
grestore
0.000 setgray
/DejaVuSans findfont
10.000 scalefont
setfont
gsave
716.611875 448.703091 translate
0.000000 rotate
0.000000 0 m /O glyphshow
7.871094 0 m /p glyphshow
14.218750 0 m /t glyphshow
18.139648 0 m /i glyphshow
20.917969 0 m /c glyphshow
26.416016 0 m /a glyphshow
32.543945 0 m /l glyphshow
35.322266 0 m /space glyphshow
38.500977 0 m /s glyphshow
43.710938 0 m /i glyphshow
46.489258 0 m /g glyphshow
52.836914 0 m /n glyphshow
59.174805 0 m /a glyphshow
65.302734 0 m /l glyphshow
grestore
1.500 setlinewidth
2 setlinecap
1.000 0.647 0.000 setrgbcolor
gsave
688.611875 437.531216 m
708.611875 437.531216 l
stroke
grestore
0.000 setgray
gsave
716.611875 434.031216 translate
0.000000 rotate
0.000000 0 m /f glyphshow
3.520508 0 m /i glyphshow
6.298828 0 m /r glyphshow
10.410156 0 m /s glyphshow
15.620117 0 m /t glyphshow
19.541016 0 m /space glyphshow
22.719727 0 m /b glyphshow
29.067383 0 m /r glyphshow
33.178711 0 m /a glyphshow
39.306641 0 m /n glyphshow
45.644531 0 m /c glyphshow
51.142578 0 m /h glyphshow
57.480469 0 m /space glyphshow
60.659180 0 m /u glyphshow
66.997070 0 m /p glyphshow
grestore
0.000 0.502 0.000 setrgbcolor
gsave
688.611875 422.859341 m
708.611875 422.859341 l
stroke
grestore
0.000 setgray
gsave
716.611875 419.359341 translate
0.000000 rotate
0.000000 0 m /s glyphshow
5.209961 0 m /e glyphshow
11.362305 0 m /c glyphshow
16.860352 0 m /o glyphshow
22.978516 0 m /n glyphshow
29.316406 0 m /d glyphshow
35.664062 0 m /space glyphshow
38.842773 0 m /b glyphshow
45.190430 0 m /r glyphshow
49.301758 0 m /a glyphshow
55.429688 0 m /n glyphshow
61.767578 0 m /c glyphshow
67.265625 0 m /h glyphshow
73.603516 0 m /space glyphshow
76.782227 0 m /d glyphshow
83.129883 0 m /o glyphshow
89.248047 0 m /w glyphshow
97.426758 0 m /n glyphshow
grestore
gsave
115.2 86.4 m
829.44 86.4 l
829.44 250.411886 l
115.2 250.411886 l
cl
1.000 setgray
fill
grestore
0.800 setlinewidth
0.690 setgray
gsave
714.2 164 115.2 86.4 clipbox
115.2 86.4 m
115.2 250.411886 l
stroke
grestore
0 setlinecap
0.000 setgray
gsave
/o {
gsave
newpath
translate
0.8 setlinewidth
1 setlinejoin
0 setlinecap
0 0 m
0 -3.5 l

gsave
0.000 setgray
fill
grestore
stroke
grestore
} bind def
115.2 86.4 o
grestore
gsave
94.528125 71.806250 translate
0.000000 rotate
0.000000 0 m /zero glyphshow
6.362305 0 m /period glyphshow
9.541016 0 m /zero glyphshow
15.903320 0 m /zero glyphshow
22.265625 0 m /zero glyphshow
28.627930 0 m /zero glyphshow
34.990234 0 m /zero glyphshow
grestore
2 setlinecap
0.690 setgray
gsave
714.2 164 115.2 86.4 clipbox
258.048 86.4 m
258.048 250.411886 l
stroke
grestore
0 setlinecap
0.000 setgray
gsave
/o {
gsave
newpath
translate
0.8 setlinewidth
1 setlinejoin
0 setlinecap
0 0 m
0 -3.5 l

gsave
0.000 setgray
fill
grestore
stroke
grestore
} bind def
258.048 86.4 o
grestore
gsave
237.376125 71.806250 translate
0.000000 rotate
0.000000 0 m /zero glyphshow
6.362305 0 m /period glyphshow
9.541016 0 m /zero glyphshow
15.903320 0 m /zero glyphshow
22.265625 0 m /zero glyphshow
28.627930 0 m /zero glyphshow
34.990234 0 m /five glyphshow
grestore
2 setlinecap
0.690 setgray
gsave
714.2 164 115.2 86.4 clipbox
400.896 86.4 m
400.896 250.411886 l
stroke
grestore
0 setlinecap
0.000 setgray
gsave
/o {
gsave
newpath
translate
0.8 setlinewidth
1 setlinejoin
0 setlinecap
0 0 m
0 -3.5 l

gsave
0.000 setgray
fill
grestore
stroke
grestore
} bind def
400.896 86.4 o
grestore
gsave
380.224125 71.806250 translate
0.000000 rotate
0.000000 0 m /zero glyphshow
6.362305 0 m /period glyphshow
9.541016 0 m /zero glyphshow
15.903320 0 m /zero glyphshow
22.265625 0 m /zero glyphshow
28.627930 0 m /one glyphshow
34.990234 0 m /zero glyphshow
grestore
2 setlinecap
0.690 setgray
gsave
714.2 164 115.2 86.4 clipbox
543.744 86.4 m
543.744 250.411886 l
stroke
grestore
0 setlinecap
0.000 setgray
gsave
/o {
gsave
newpath
translate
0.8 setlinewidth
1 setlinejoin
0 setlinecap
0 0 m
0 -3.5 l

gsave
0.000 setgray
fill
grestore
stroke
grestore
} bind def
543.744 86.4 o
grestore
gsave
523.072125 71.806250 translate
0.000000 rotate
0.000000 0 m /zero glyphshow
6.362305 0 m /period glyphshow
9.541016 0 m /zero glyphshow
15.903320 0 m /zero glyphshow
22.265625 0 m /zero glyphshow
28.627930 0 m /one glyphshow
34.990234 0 m /five glyphshow
grestore
2 setlinecap
0.690 setgray
gsave
714.2 164 115.2 86.4 clipbox
686.592 86.4 m
686.592 250.411886 l
stroke
grestore
0 setlinecap
0.000 setgray
gsave
/o {
gsave
newpath
translate
0.8 setlinewidth
1 setlinejoin
0 setlinecap
0 0 m
0 -3.5 l

gsave
0.000 setgray
fill
grestore
stroke
grestore
} bind def
686.592 86.4 o
grestore
gsave
665.920125 71.806250 translate
0.000000 rotate
0.000000 0 m /zero glyphshow
6.362305 0 m /period glyphshow
9.541016 0 m /zero glyphshow
15.903320 0 m /zero glyphshow
22.265625 0 m /zero glyphshow
28.627930 0 m /two glyphshow
34.990234 0 m /zero glyphshow
grestore
2 setlinecap
0.690 setgray
gsave
714.2 164 115.2 86.4 clipbox
829.44 86.4 m
829.44 250.411886 l
stroke
grestore
0 setlinecap
0.000 setgray
gsave
/o {
gsave
newpath
translate
0.8 setlinewidth
1 setlinejoin
0 setlinecap
0 0 m
0 -3.5 l

gsave
0.000 setgray
fill
grestore
stroke
grestore
} bind def
829.44 86.4 o
grestore
gsave
808.768125 71.806250 translate
0.000000 rotate
0.000000 0 m /zero glyphshow
6.362305 0 m /period glyphshow
9.541016 0 m /zero glyphshow
15.903320 0 m /zero glyphshow
22.265625 0 m /zero glyphshow
28.627930 0 m /two glyphshow
34.990234 0 m /five glyphshow
grestore
gsave
454.155938 58.134375 translate
0.000000 rotate
0.000000 0 m /T glyphshow
5.858398 0 m /i glyphshow
8.636719 0 m /m glyphshow
18.377930 0 m /e glyphshow
24.530273 0 m /space glyphshow
27.708984 0 m /slash glyphshow
31.078125 0 m /s glyphshow
grestore
2 setlinecap
0.690 setgray
gsave
714.2 164 115.2 86.4 clipbox
115.2 112.826484 m
829.44 112.826484 l
stroke
grestore
0 setlinecap
0.000 setgray
gsave
/o {
gsave
newpath
translate
0.8 setlinewidth
1 setlinejoin
0 setlinecap
0 0 m
-3.5 0 l

gsave
0.000 setgray
fill
grestore
stroke
grestore
} bind def
115.2 112.826 o
grestore
gsave
93.465625 109.029609 translate
0.000000 rotate
0.000000 0 m /minus glyphshow
8.378906 0 m /one glyphshow
grestore
2 setlinecap
0.690 setgray
gsave
714.2 164 115.2 86.4 clipbox
115.2 142.339712 m
829.44 142.339712 l
stroke
grestore
0 setlinecap
0.000 setgray
gsave
/o {
gsave
newpath
translate
0.8 setlinewidth
1 setlinejoin
0 setlinecap
0 0 m
-3.5 0 l

gsave
0.000 setgray
fill
grestore
stroke
grestore
} bind def
115.2 142.34 o
grestore
gsave
101.840625 138.542837 translate
0.000000 rotate
0.000000 0 m /zero glyphshow
grestore
2 setlinecap
0.690 setgray
gsave
714.2 164 115.2 86.4 clipbox
115.2 171.85294 m
829.44 171.85294 l
stroke
grestore
0 setlinecap
0.000 setgray
gsave
/o {
gsave
newpath
translate
0.8 setlinewidth
1 setlinejoin
0 setlinecap
0 0 m
-3.5 0 l

gsave
0.000 setgray
fill
grestore
stroke
grestore
} bind def
115.2 171.853 o
grestore
gsave
101.840625 168.056065 translate
0.000000 rotate
0.000000 0 m /one glyphshow
grestore
2 setlinecap
0.690 setgray
gsave
714.2 164 115.2 86.4 clipbox
115.2 201.366169 m
829.44 201.366169 l
stroke
grestore
0 setlinecap
0.000 setgray
gsave
/o {
gsave
newpath
translate
0.8 setlinewidth
1 setlinejoin
0 setlinecap
0 0 m
-3.5 0 l

gsave
0.000 setgray
fill
grestore
stroke
grestore
} bind def
115.2 201.366 o
grestore
gsave
101.840625 197.569294 translate
0.000000 rotate
0.000000 0 m /two glyphshow
grestore
2 setlinecap
0.690 setgray
gsave
714.2 164 115.2 86.4 clipbox
115.2 230.879397 m
829.44 230.879397 l
stroke
grestore
0 setlinecap
0.000 setgray
gsave
/o {
gsave
newpath
translate
0.8 setlinewidth
1 setlinejoin
0 setlinecap
0 0 m
-3.5 0 l

gsave
0.000 setgray
fill
grestore
stroke
grestore
} bind def
115.2 230.879 o
grestore
gsave
101.840625 227.082522 translate
0.000000 rotate
0.000000 0 m /three glyphshow
grestore
gsave
87.387500 142.929380 translate
90.000000 rotate
0.000000 0 m /V glyphshow
6.090820 0 m /o glyphshow
12.208984 0 m /l glyphshow
14.987305 0 m /t glyphshow
18.908203 0 m /a glyphshow
25.036133 0 m /g glyphshow
31.383789 0 m /e glyphshow
37.536133 0 m /space glyphshow
40.714844 0 m /slash glyphshow
44.083984 0 m /V glyphshow
grestore
1.000 setlinewidth
0.122 0.467 0.706 setrgbcolor
gsave
714.2 164 115.2 86.4 clipbox
/o {
gsave
newpath
translate
1.0 setlinewidth
1 setlinejoin
0 setlinecap
0 -0.5 m
0.132602 -0.5 0.25979 -0.447317 0.353553 -0.353553 c
0.447317 -0.25979 0.5 -0.132602 0.5 0 c
0.5 0.132602 0.447317 0.25979 0.353553 0.353553 c
0.25979 0.447317 0.132602 0.5 0 0.5 c
-0.132602 0.5 -0.25979 0.447317 -0.353553 0.353553 c
-0.447317 0.25979 -0.5 0.132602 -0.5 0 c
-0.5 -0.132602 -0.447317 -0.25979 -0.353553 -0.353553 c
-0.25979 -0.447317 -0.132602 -0.5 0 -0.5 c
cl

gsave
0.122 0.467 0.706 setrgbcolor
fill
grestore
stroke
grestore
} bind def
115.2 130.175 o
115.771 129.529 o
116.343 129.003 o
116.914 128.367 o
117.486 127.721 o
118.057 127.104 o
118.628 126.356 o
119.2 125.739 o
119.771 125.162 o
120.343 124.655 o
120.914 124.069 o
121.485 123.46 o
122.057 122.787 o
122.628 122.165 o
123.199 121.588 o
123.771 121.063 o
124.342 120.417 o
124.914 119.887 o
125.485 119.223 o
126.056 118.559 o
126.628 117.918 o
127.199 117.272 o
127.771 116.659 o
128.342 116.078 o
128.913 115.603 o
129.485 115.026 o
130.056 114.496 o
130.628 113.984 o
131.199 113.403 o
131.77 112.914 o
132.342 112.338 o
132.913 111.665 o
133.485 111.152 o
134.056 110.498 o
134.627 109.921 o
135.199 109.257 o
135.77 108.547 o
136.342 107.92 o
136.913 107.288 o
137.484 106.712 o
138.056 106.098 o
138.627 105.402 o
139.198 104.821 o
139.77 104.277 o
140.341 103.746 o
140.913 103.059 o
141.484 102.391 o
142.055 101.916 o
142.627 101.247 o
143.198 100.569 o
143.77 99.993 o
144.341 99.2595 o
144.912 98.7386 o
145.484 97.9961 o
146.055 97.4011 o
146.627 96.8108 o
147.198 96.3038 o
147.769 95.5981 o
148.341 95.1785 o
148.912 94.4775 o
149.484 94.0487 o
150.055 94.247 o
150.626 94.9019 o
151.198 95.2891 o
151.769 95.9623 o
152.34 96.6311 o
152.912 97.24 o
153.483 97.8763 o
154.055 98.3328 o
154.626 98.9505 o
155.197 99.4948 o
155.769 100.21 o
156.34 100.74 o
156.912 101.302 o
157.483 101.934 o
158.054 102.69 o
158.626 103.161 o
159.197 103.848 o
159.769 104.535 o
160.34 105.259 o
160.911 105.688 o
161.483 106.384 o
162.054 106.938 o
162.626 107.57 o
163.197 108.229 o
163.768 108.722 o
164.34 109.428 o
164.911 110.06 o
165.482 110.756 o
166.054 111.379 o
166.625 111.876 o
167.197 112.384 o
167.768 113.066 o
168.339 113.587 o
168.911 114.164 o
169.482 114.666 o
170.054 115.243 o
170.625 115.782 o
171.196 116.511 o
171.768 117 o
172.339 117.816 o
172.911 118.42 o
173.482 118.964 o
174.053 119.587 o
174.625 120.26 o
175.196 120.8 o
175.768 121.376 o
176.339 121.879 o
176.91 122.603 o
177.482 123.096 o
178.053 123.816 o
178.625 124.429 o
179.196 125.019 o
179.767 125.651 o
180.339 126.094 o
180.91 126.688 o
181.481 127.412 o
182.053 127.887 o
182.624 128.727 o
183.196 129.229 o
183.767 129.778 o
184.338 130.525 o
184.91 131.083 o
185.481 131.669 o
186.053 132.333 o
186.624 132.808 o
187.195 133.407 o
187.767 133.855 o
188.338 134.343 o
188.91 134.961 o
189.481 135.515 o
190.052 136.17 o
190.624 136.788 o
191.195 137.456 o
191.767 138.028 o
192.338 138.544 o
192.909 139.305 o
193.481 139.896 o
194.052 140.431 o
194.623 141.113 o
195.195 141.842 o
195.766 142.464 o
196.338 143.036 o
196.909 143.599 o
197.48 144.161 o
198.052 144.65 o
198.623 145.231 o
199.195 145.895 o
199.766 146.379 o
200.337 147.016 o
200.909 147.634 o
201.48 148.284 o
202.052 148.773 o
202.623 149.372 o
203.194 149.981 o
203.766 150.507 o
204.337 151.051 o
204.909 151.374 o
205.48 151.991 o
206.051 152.31 o
206.623 152.692 o
207.194 153.13 o
207.766 153.744 o
208.337 154.334 o
208.908 154.781 o
209.48 155.362 o
210.051 155.985 o
210.622 156.617 o
211.194 157.212 o
211.765 157.687 o
212.337 158.452 o
212.908 159.005 o
213.479 159.573 o
214.051 160.204 o
214.622 160.569 o
215.194 161.39 o
215.765 161.948 o
216.336 162.538 o
216.908 163.16 o
217.479 163.815 o
218.051 164.355 o
218.622 164.931 o
219.193 165.637 o
219.765 166.259 o
220.336 166.868 o
220.908 167.44 o
221.479 167.938 o
222.05 168.565 o
222.622 169.081 o
223.193 169.63 o
223.764 170.248 o
224.336 170.875 o
224.907 171.35 o
225.479 172.024 o
226.05 172.559 o
226.621 173.241 o
227.193 173.827 o
227.764 174.352 o
228.336 174.938 o
228.907 175.644 o
229.478 176.22 o
230.05 176.792 o
230.621 177.626 o
231.193 178.088 o
231.764 178.743 o
232.335 179.31 o
232.907 180.015 o
233.478 180.675 o
234.05 181.186 o
234.621 181.841 o
235.192 182.386 o
235.764 183.04 o
236.335 183.751 o
236.906 184.308 o
237.478 184.94 o
238.049 185.586 o
238.621 186.227 o
239.192 186.789 o
239.763 187.352 o
240.335 187.952 o
240.906 188.454 o
241.478 189.058 o
242.049 189.556 o
242.62 190.151 o
243.192 190.695 o
243.763 191.3 o
244.335 191.973 o
244.906 192.461 o
245.477 193.149 o
246.049 193.776 o
246.62 194.389 o
247.192 195.053 o
247.763 195.713 o
248.334 196.331 o
248.906 196.916 o
249.477 197.58 o
250.049 198.189 o
250.62 198.719 o
251.191 199.425 o
251.763 200.126 o
252.334 200.605 o
252.905 201.219 o
253.477 201.91 o
254.048 202.422 o
254.62 203.257 o
255.191 203.709 o
255.762 204.373 o
256.334 204.876 o
256.905 205.544 o
257.477 206.162 o
258.048 206.817 o
258.619 207.333 o
259.191 208.011 o
259.762 208.662 o
260.334 209.196 o
260.905 209.837 o
261.476 210.409 o
262.048 211.009 o
262.619 211.654 o
263.191 212.291 o
263.762 213.089 o
264.333 213.499 o
264.905 214.103 o
265.476 214.804 o
266.047 215.459 o
266.619 215.938 o
267.19 216.561 o
267.762 217.335 o
268.333 217.806 o
268.904 218.493 o
269.476 219.042 o
270.047 219.738 o
270.619 220.384 o
271.19 220.942 o
271.761 221.569 o
272.333 222.094 o
272.904 222.648 o
273.476 223.377 o
274.047 224.041 o
274.618 224.663 o
275.19 225.253 o
275.761 225.733 o
276.333 226.194 o
276.904 226.729 o
277.475 227.246 o
278.047 227.702 o
278.618 228.218 o
279.19 228.795 o
279.761 229.385 o
280.332 229.823 o
280.904 230.446 o
281.475 231.096 o
282.046 231.788 o
282.618 232.392 o
283.189 232.991 o
283.761 233.655 o
284.332 234.301 o
284.903 234.924 o
285.475 235.403 o
286.046 236.196 o
286.618 236.74 o
287.189 237.271 o
287.76 237.898 o
288.332 238.451 o
288.903 239.046 o
289.475 239.687 o
290.046 240.305 o
290.617 240.997 o
291.189 241.559 o
291.76 242.223 o
292.332 242.832 o
292.903 242.491 o
293.474 241.901 o
294.046 241.315 o
294.617 240.587 o
295.188 240.07 o
295.76 239.309 o
296.331 238.733 o
296.903 238.11 o
297.474 237.455 o
298.045 236.865 o
298.617 236.247 o
299.188 235.5 o
299.76 234.919 o
300.331 234.25 o
300.902 233.789 o
301.474 233.139 o
302.045 232.512 o
302.617 231.825 o
303.188 231.193 o
303.759 230.686 o
304.331 230.045 o
304.902 229.418 o
305.474 228.731 o
306.045 228.108 o
306.616 227.55 o
307.188 227.282 o
307.759 226.872 o
308.33 226.314 o
308.902 225.853 o
309.473 225.193 o
310.045 224.608 o
310.616 224.045 o
311.187 223.483 o
311.759 222.957 o
312.33 222.196 o
312.902 221.551 o
313.473 221.025 o
314.044 220.393 o
314.616 219.794 o
315.187 219.162 o
315.759 218.636 o
316.33 217.921 o
316.901 217.317 o
317.473 216.745 o
318.044 216.174 o
318.616 215.537 o
319.187 214.965 o
319.758 214.301 o
320.33 213.716 o
320.901 213.107 o
321.473 212.452 o
322.044 211.935 o
322.615 211.345 o
323.187 210.64 o
323.758 210.031 o
324.329 209.501 o
324.901 208.777 o
325.472 208.32 o
326.044 207.693 o
326.615 207.112 o
327.186 206.536 o
327.758 205.835 o
328.329 205.341 o
328.901 204.811 o
329.472 204.087 o
330.043 203.437 o
330.615 202.893 o
331.186 202.169 o
331.758 201.698 o
332.329 201.071 o
332.9 200.458 o
333.472 199.96 o
334.043 199.254 o
334.615 198.673 o
335.186 197.986 o
335.757 197.4 o
336.329 196.833 o
336.9 196.22 o
337.471 195.528 o
338.043 195.016 o
338.614 194.278 o
339.186 193.624 o
339.757 193.01 o
340.328 192.411 o
340.9 191.765 o
341.471 191.235 o
342.043 190.58 o
342.614 190.128 o
343.185 189.552 o
343.757 189.086 o
344.328 188.468 o
344.9 187.952 o
345.471 187.375 o
346.042 186.84 o
346.614 186.218 o
347.185 185.581 o
347.757 184.94 o
348.328 184.322 o
348.899 183.621 o
349.471 183.1 o
350.042 182.423 o
350.614 181.851 o
351.185 181.399 o
351.756 180.785 o
352.328 180.227 o
352.899 179.485 o
353.47 178.862 o
354.042 178.328 o
354.613 177.742 o
355.185 177.115 o
355.756 176.478 o
356.327 175.828 o
356.899 175.21 o
357.47 174.606 o
358.042 173.956 o
358.613 173.356 o
359.184 172.665 o
359.756 172.236 o
360.327 171.553 o
360.899 171.004 o
361.47 170.271 o
362.041 169.782 o
362.613 169.294 o
363.184 168.772 o
363.756 168.122 o
364.327 167.491 o
364.898 166.969 o
365.47 166.333 o
366.041 165.798 o
366.612 165.153 o
367.184 164.479 o
367.755 163.857 o
368.327 163.253 o
368.898 162.667 o
369.469 162.155 o
370.041 161.431 o
370.612 160.832 o
371.184 160.251 o
371.755 159.729 o
372.326 159.162 o
372.898 158.59 o
373.469 157.996 o
374.041 157.308 o
374.612 156.797 o
375.183 156.142 o
375.755 155.598 o
376.326 154.989 o
376.898 154.445 o
377.469 153.864 o
378.04 153.26 o
378.612 152.734 o
379.183 152.328 o
379.754 152.015 o
380.326 151.576 o
380.897 151.042 o
381.469 150.58 o
382.04 150.11 o
382.611 149.58 o
383.183 148.745 o
383.754 148.159 o
384.326 147.671 o
384.897 147.103 o
385.468 146.421 o
386.04 145.831 o
386.611 145.277 o
387.183 144.738 o
387.754 144.194 o
388.325 143.64 o
388.897 142.976 o
389.468 142.363 o
390.04 141.689 o
390.611 140.993 o
391.182 140.491 o
391.754 139.767 o
392.325 139.153 o
392.897 138.549 o
393.468 137.871 o
394.039 137.258 o
394.611 136.626 o
395.182 136.022 o
395.753 135.432 o
396.325 134.906 o
396.896 134.187 o
397.468 133.532 o
398.039 133.108 o
398.61 132.499 o
399.182 131.969 o
399.753 131.364 o
400.325 130.853 o
400.896 130.087 o
401.467 129.584 o
402.039 129.008 o
402.61 128.349 o
403.182 127.754 o
403.753 127.205 o
404.324 126.532 o
404.896 125.909 o
405.467 125.328 o
406.039 124.747 o
406.61 124.249 o
407.181 123.46 o
407.753 122.884 o
408.324 122.146 o
408.895 121.717 o
409.467 121.146 o
410.038 120.385 o
410.61 119.785 o
411.181 119.218 o
411.752 118.6 o
412.324 117.968 o
412.895 117.373 o
413.467 116.695 o
414.038 116.11 o
414.609 115.538 o
415.181 115.008 o
415.752 114.611 o
416.324 113.942 o
416.895 113.472 o
417.466 112.928 o
418.038 112.264 o
418.609 111.692 o
419.181 111.185 o
419.752 110.41 o
420.323 109.907 o
420.895 109.345 o
421.466 108.704 o
422.038 108.012 o
422.609 107.367 o
423.18 106.785 o
423.752 106.278 o
424.323 105.522 o
424.894 104.964 o
425.466 104.295 o
426.037 103.659 o
426.609 103.055 o
427.18 102.442 o
427.751 101.934 o
428.323 101.358 o
428.894 100.717 o
429.466 100.104 o
430.037 99.5503 o
430.608 98.8815 o
431.18 98.1714 o
431.751 97.4888 o
432.323 97.0877 o
432.894 96.3959 o
433.465 95.921 o
434.037 95.1277 o
434.608 94.7127 o
435.18 94.2839 o
435.751 94.4176 o
436.322 94.9618 o
436.894 95.6398 o
437.465 95.9532 o
438.036 96.5803 o
438.608 97.309 o
439.179 97.9914 o
439.751 98.4341 o
440.322 99.0751 o
440.893 99.6609 o
441.465 100.343 o
442.036 101.026 o
442.608 101.598 o
443.179 102.322 o
443.75 102.806 o
444.322 103.516 o
444.893 104.18 o
445.465 104.729 o
446.036 105.31 o
446.607 106.025 o
447.179 106.587 o
447.75 107.09 o
448.322 107.777 o
448.893 108.289 o
449.464 109.018 o
450.036 109.548 o
450.607 110.133 o
451.178 110.733 o
451.75 111.411 o
452.321 112.029 o
452.893 112.545 o
453.464 113.076 o
454.035 113.657 o
454.607 114.251 o
455.178 114.782 o
455.75 115.39 o
456.321 115.875 o
456.892 116.474 o
457.464 117.184 o
458.035 117.636 o
458.607 118.25 o
459.178 118.937 o
459.749 119.481 o
460.321 120.126 o
460.892 120.772 o
461.464 121.381 o
462.035 121.962 o
462.606 122.469 o
463.178 123.138 o
463.749 123.682 o
464.321 124.309 o
464.892 124.927 o
465.463 125.568 o
466.035 126.103 o
466.606 126.808 o
467.177 127.353 o
467.749 128.03 o
468.32 128.63 o
468.892 129.234 o
469.463 129.889 o
470.034 130.548 o
470.606 131.125 o
471.177 131.779 o
471.749 132.439 o
472.32 132.942 o
472.891 133.435 o
473.463 133.933 o
474.034 134.592 o
474.606 135.164 o
475.177 135.727 o
475.748 136.294 o
476.32 136.838 o
476.891 137.336 o
477.463 138.088 o
478.034 138.715 o
478.605 139.301 o
479.177 139.965 o
479.748 140.394 o
480.319 141.104 o
480.891 141.749 o
481.462 142.354 o
482.034 142.93 o
482.605 143.58 o
483.176 144.161 o
483.748 144.756 o
484.319 145.328 o
484.891 145.854 o
485.462 146.518 o
486.033 147.117 o
486.605 147.661 o
487.176 148.256 o
487.748 148.846 o
488.319 149.395 o
488.89 150.133 o
489.462 150.645 o
490.033 151.042 o
490.605 151.47 o
491.176 152.107 o
491.747 152.402 o
492.319 152.646 o
492.89 153.167 o
493.462 153.771 o
494.033 154.306 o
494.604 154.924 o
495.176 155.501 o
495.747 156.114 o
496.318 156.792 o
496.89 157.387 o
497.461 158.023 o
498.033 158.549 o
498.604 159.13 o
499.175 159.582 o
499.747 160.274 o
500.318 160.975 o
500.89 161.537 o
501.461 162.137 o
502.032 162.759 o
502.604 163.479 o
503.175 164.161 o
503.747 164.668 o
504.318 165.263 o
504.889 165.95 o
505.461 166.605 o
506.032 167.126 o
506.604 167.643 o
507.175 168.288 o
507.746 168.736 o
508.318 169.358 o
508.889 169.884 o
509.46 170.451 o
510.032 171.17 o
510.603 171.567 o
511.175 172.213 o
511.746 172.789 o
512.317 173.476 o
512.889 174.08 o
513.46 174.532 o
514.032 175.205 o
514.603 176.077 o
515.174 176.607 o
515.746 177.35 o
516.317 177.866 o
516.889 178.539 o
517.46 179.093 o
518.031 179.748 o
518.603 180.343 o
519.174 180.891 o
519.746 181.376 o
520.317 182.049 o
520.888 182.727 o
521.46 183.275 o
522.031 183.811 o
522.602 184.64 o
523.174 185.134 o
523.745 185.766 o
524.317 186.444 o
524.888 186.909 o
525.459 187.573 o
526.031 188.251 o
526.602 188.726 o
527.174 189.183 o
527.745 189.805 o
528.316 190.419 o
528.888 191.064 o
529.459 191.655 o
530.031 192.277 o
530.602 192.872 o
531.173 193.43 o
531.745 194.02 o
532.316 194.753 o
532.888 195.353 o
533.459 196.026 o
534.03 196.515 o
534.602 197.101 o
535.173 197.635 o
535.745 198.29 o
536.316 198.95 o
536.887 199.637 o
537.459 200.264 o
538.03 200.836 o
538.601 201.491 o
539.173 202.275 o
539.744 202.888 o
540.316 203.487 o
540.887 203.985 o
541.458 204.548 o
542.03 205.189 o
542.601 205.793 o
543.173 206.452 o
543.744 207.163 o
544.315 207.665 o
544.887 208.265 o
545.458 208.735 o
546.03 209.187 o
546.601 209.985 o
547.172 210.621 o
547.744 211.202 o
548.315 211.71 o
548.887 212.365 o
549.458 212.908 o
550.029 213.619 o
550.601 214.218 o
551.172 214.735 o
551.743 215.399 o
552.315 216.003 o
552.886 216.487 o
553.458 217.197 o
554.029 217.811 o
554.6 218.516 o
555.172 219.088 o
555.743 219.558 o
556.315 220.056 o
556.886 220.762 o
557.457 221.375 o
558.029 222.012 o
558.6 222.574 o
559.172 223.178 o
559.743 223.805 o
560.314 224.548 o
560.886 224.871 o
561.457 225.535 o
562.029 226.111 o
562.6 226.646 o
563.171 227.176 o
563.743 227.578 o
564.314 228.043 o
564.886 228.601 o
565.457 229.293 o
566.028 229.69 o
566.6 230.409 o
567.171 231.119 o
567.742 231.659 o
568.314 232.249 o
568.885 232.908 o
569.457 233.545 o
570.028 234.103 o
570.599 234.679 o
571.171 235.246 o
571.742 235.814 o
572.314 236.529 o
572.885 237.137 o
573.456 237.727 o
574.028 238.419 o
574.599 238.968 o
575.171 239.549 o
575.742 240.162 o
576.313 240.831 o
576.885 241.366 o
577.456 242.021 o
578.028 242.62 o
578.599 242.205 o
579.17 241.675 o
579.742 241.075 o
580.313 240.476 o
580.884 239.812 o
581.456 239.166 o
582.027 238.544 o
582.599 238.009 o
583.17 237.478 o
583.741 236.801 o
584.313 236.229 o
584.884 235.62 o
585.456 235.007 o
586.027 234.356 o
586.598 233.785 o
587.17 233.056 o
587.741 232.443 o
588.313 231.917 o
588.884 231.188 o
589.455 230.644 o
590.027 229.994 o
590.598 229.524 o
591.17 228.823 o
591.741 228.182 o
592.312 227.744 o
592.884 227.315 o
593.455 226.909 o
594.026 226.328 o
594.598 225.788 o
595.169 225.286 o
595.741 224.829 o
596.312 224.133 o
596.883 223.667 o
597.455 223.114 o
598.026 222.376 o
598.598 221.79 o
599.169 221.2 o
599.74 220.481 o
600.312 219.789 o
600.883 219.268 o
601.455 218.848 o
602.026 218.11 o
602.597 217.603 o
603.169 216.985 o
603.74 216.386 o
604.312 215.662 o
604.883 215.182 o
605.454 214.495 o
606.026 213.909 o
606.597 213.287 o
607.169 212.71 o
607.74 211.945 o
608.311 211.382 o
608.883 210.875 o
609.454 210.206 o
610.025 209.579 o
610.597 209.063 o
611.168 208.412 o
611.74 207.799 o
612.311 207.237 o
612.882 206.619 o
613.454 206.065 o
614.025 205.581 o
614.597 204.94 o
615.168 204.294 o
615.739 203.676 o
616.311 203.146 o
616.882 202.436 o
617.454 201.874 o
618.025 201.315 o
618.596 200.651 o
619.168 200.08 o
619.739 199.374 o
620.311 198.839 o
620.882 198.244 o
621.453 197.511 o
622.025 196.865 o
622.596 196.386 o
623.167 195.731 o
623.739 195.155 o
624.31 194.509 o
624.882 193.923 o
625.453 193.513 o
626.024 192.793 o
626.596 192.226 o
627.167 191.668 o
627.739 190.949 o
628.31 190.391 o
628.881 189.75 o
629.453 189.395 o
630.024 188.735 o
630.596 188.168 o
631.167 187.666 o
631.738 187.126 o
632.31 186.527 o
632.881 185.826 o
633.453 185.318 o
634.024 184.714 o
634.595 183.986 o
635.167 183.414 o
635.738 182.782 o
636.31 182.238 o
636.881 181.624 o
637.452 180.937 o
638.024 180.338 o
638.595 179.54 o
639.166 178.835 o
639.738 178.286 o
640.309 177.76 o
640.881 177.055 o
641.452 176.506 o
642.023 175.911 o
642.595 175.266 o
643.166 174.638 o
643.738 174.011 o
644.309 173.462 o
644.88 172.789 o
645.452 172.3 o
646.023 171.502 o
646.595 171.032 o
647.166 170.525 o
647.737 169.861 o
648.309 169.404 o
648.88 168.786 o
649.452 168.224 o
650.023 167.735 o
650.594 167.08 o
651.166 166.425 o
651.737 165.803 o
652.308 165.116 o
652.88 164.548 o
653.451 163.834 o
654.023 163.308 o
654.594 162.69 o
655.165 162.132 o
655.737 161.602 o
656.308 161.062 o
656.88 160.343 o
657.451 159.776 o
658.022 159.176 o
658.594 158.535 o
659.165 157.885 o
659.737 157.336 o
660.308 156.723 o
660.879 156.054 o
661.451 155.39 o
662.022 154.887 o
662.594 154.154 o
663.165 153.615 o
663.736 153.117 o
664.308 152.656 o
664.879 152.356 o
665.45 151.996 o
666.022 151.466 o
666.593 151.037 o
667.165 150.507 o
667.736 149.815 o
668.307 149.261 o
668.879 148.694 o
669.45 148.178 o
670.022 147.514 o
670.593 146.827 o
671.164 146.25 o
671.736 145.628 o
672.307 145.051 o
672.879 144.396 o
673.45 143.912 o
674.021 143.267 o
674.593 142.653 o
675.164 142.151 o
675.736 141.371 o
676.307 140.813 o
676.878 140.306 o
677.45 139.757 o
678.021 139.172 o
678.593 138.581 o
679.164 137.996 o
679.735 137.336 o
680.307 136.815 o
680.878 136.133 o
681.449 135.542 o
682.021 134.874 o
682.592 134.288 o
683.164 133.716 o
683.735 133.168 o
684.306 132.582 o
684.878 132.038 o
685.449 131.383 o
686.021 130.908 o
686.592 130.244 o
687.163 129.649 o
687.735 129.054 o
688.306 128.418 o
688.878 127.897 o
689.449 127.265 o
690.02 126.49 o
690.592 125.914 o
691.163 125.36 o
691.735 124.904 o
692.306 124.277 o
692.877 123.585 o
693.449 122.939 o
694.02 122.321 o
694.591 121.717 o
695.163 121.159 o
695.734 120.624 o
696.306 119.873 o
696.877 119.246 o
697.448 118.688 o
698.02 118.12 o
698.591 117.392 o
699.163 116.719 o
699.734 116.128 o
700.305 115.538 o
700.877 115.04 o
701.448 114.565 o
702.02 114.099 o
702.591 113.412 o
703.162 112.85 o
703.734 112.241 o
704.305 111.743 o
704.877 111.222 o
705.448 110.613 o
706.019 110.032 o
706.591 109.437 o
707.162 108.741 o
707.734 108.104 o
708.305 107.505 o
708.876 106.864 o
709.448 106.352 o
710.019 105.817 o
710.59 105.148 o
711.162 104.475 o
711.733 103.793 o
712.305 103.198 o
712.876 102.608 o
713.447 101.916 o
714.019 101.238 o
714.59 100.74 o
715.162 100.067 o
715.733 99.5503 o
716.304 98.9275 o
716.876 98.2821 o
717.447 97.5903 o
718.019 96.9124 o
718.59 96.3129 o
719.161 95.7687 o
719.733 95.1971 o
720.304 94.6112 o
720.876 94.1732 o
721.447 94.4362 o
722.018 95.0217 o
722.59 95.5196 o
723.161 96.0686 o
723.732 96.6957 o
724.304 97.309 o
724.875 97.9406 o
725.447 98.5173 o
726.018 99.0707 o
726.589 99.7808 o
727.161 100.44 o
727.732 100.966 o
728.304 101.768 o
728.875 102.432 o
729.446 103.027 o
730.018 103.544 o
730.589 104.166 o
731.161 104.738 o
731.732 105.361 o
732.303 106.034 o
732.875 106.606 o
733.446 107.224 o
734.018 107.892 o
734.589 108.418 o
735.16 109.05 o
735.732 109.774 o
736.303 110.442 o
736.874 111.005 o
737.446 111.549 o
738.017 112.162 o
738.589 112.757 o
739.16 113.315 o
739.731 113.864 o
740.303 114.376 o
740.874 114.971 o
741.446 115.409 o
742.017 116.082 o
742.588 116.617 o
743.16 117.281 o
743.731 117.858 o
744.303 118.416 o
744.874 118.987 o
745.445 119.693 o
746.017 120.265 o
746.588 120.92 o
747.16 121.436 o
747.731 121.985 o
748.302 122.575 o
748.874 123.244 o
749.445 123.76 o
750.017 124.383 o
750.588 125.084 o
751.159 125.688 o
751.731 126.287 o
752.302 126.947 o
752.873 127.592 o
753.445 128.275 o
754.016 128.787 o
754.588 129.395 o
755.159 130.009 o
755.73 130.604 o
756.302 131.185 o
756.873 131.853 o
757.445 132.388 o
758.016 133.038 o
758.587 133.518 o
759.159 134.108 o
759.73 134.777 o
760.302 135.316 o
760.873 135.934 o
761.444 136.631 o
762.016 137.133 o
762.587 137.802 o
763.159 138.411 o
763.73 138.964 o
764.301 139.702 o
764.873 140.223 o
765.444 140.73 o
766.015 141.459 o
766.587 141.911 o
767.158 142.51 o
767.73 143.091 o
768.301 143.649 o
768.872 144.23 o
769.444 144.835 o
770.015 145.379 o
770.587 145.946 o
771.158 146.619 o
771.729 147.205 o
772.301 147.827 o
772.872 148.325 o
773.444 149.026 o
774.015 149.718 o
774.586 150.308 o
775.158 150.802 o
775.729 151.148 o
776.301 151.572 o
776.872 152.07 o
777.443 152.471 o
778.015 152.762 o
778.586 153.389 o
779.158 153.841 o
779.729 154.597 o
780.3 155.169 o
780.872 155.727 o
781.443 156.34 o
782.014 156.926 o
782.586 157.53 o
783.157 157.986 o
783.729 158.683 o
784.3 159.204 o
784.871 159.693 o
785.443 160.269 o
786.014 161.039 o
786.586 161.519 o
787.157 162.22 o
787.728 162.764 o
788.3 163.354 o
788.871 163.903 o
789.443 164.493 o
790.014 165.143 o
790.585 165.78 o
791.157 166.541 o
791.728 167.117 o
792.3 167.675 o
792.871 168.118 o
793.442 168.685 o
794.014 169.312 o
794.585 169.801 o
795.156 170.303 o
795.728 170.852 o
796.299 171.553 o
796.871 172.259 o
797.442 172.738 o
798.013 173.439 o
798.585 174.025 o
799.156 174.763 o
799.728 175.215 o
800.299 175.846 o
800.87 176.474 o
801.442 177.069 o
802.013 177.802 o
802.585 178.438 o
803.156 179.102 o
803.727 179.683 o
804.299 180.213 o
804.87 180.873 o
805.442 181.343 o
806.013 182.054 o
806.584 182.648 o
807.156 183.262 o
807.727 183.852 o
808.298 184.47 o
808.87 185.042 o
809.441 185.78 o
810.013 186.291 o
810.584 187.029 o
811.155 187.569 o
811.727 188.145 o
812.298 188.671 o
812.87 189.257 o
813.441 189.708 o
814.012 190.345 o
814.584 190.838 o
815.155 191.438 o
815.727 192.051 o
816.298 192.66 o
816.869 193.208 o
817.441 193.845 o
818.012 194.518 o
818.584 195.21 o
819.155 195.754 o
819.726 196.418 o
820.298 196.893 o
820.869 197.502 o
821.441 198.17 o
822.012 198.839 o
822.583 199.466 o
823.155 200.089 o
823.726 200.642 o
824.297 201.103 o
824.869 201.763 o
825.44 202.339 o
826.012 202.911 o
826.583 203.511 o
827.154 204.184 o
827.726 204.728 o
828.297 205.35 o
828.869 206.139 o
829.44 206.715 o
830.011 207.2 o
grestore
0.800 setlinewidth
0 setlinejoin
2 setlinecap
[] 0 setdash
0.000 setgray
gsave
115.2 86.4 m
115.2 250.411886 l
stroke
grestore
gsave
829.44 86.4 m
829.44 250.411886 l
stroke
grestore
gsave
115.2 86.4 m
829.44 86.4 l
stroke
grestore
gsave
115.2 250.411886 m
829.44 250.411886 l
stroke
grestore
1.000 setlinewidth
0 setlinecap
0.800 setgray
gsave
662.2525 227.740011 m
822.44 227.740011 l
823.773333 227.740011 824.44 228.406677 824.44 229.740011 c
824.44 243.411886 l
824.44 244.745219 823.773333 245.411886 822.44 245.411886 c
662.2525 245.411886 l
660.919167 245.411886 660.2525 244.745219 660.2525 243.411886 c
660.2525 229.740011 l
660.2525 228.406677 660.919167 227.740011 662.2525 227.740011 c
cl
gsave
1.000 setgray
fill
grestore
stroke
grestore
1 setlinejoin
[] 0 setdash
0.122 0.467 0.706 setrgbcolor
gsave
/o {
gsave
newpath
translate
1.0 setlinewidth
1 setlinejoin
0 setlinecap
0 -0.5 m
0.132602 -0.5 0.25979 -0.447317 0.353553 -0.353553 c
0.447317 -0.25979 0.5 -0.132602 0.5 0 c
0.5 0.132602 0.447317 0.25979 0.353553 0.353553 c
0.25979 0.447317 0.132602 0.5 0 0.5 c
-0.132602 0.5 -0.25979 0.447317 -0.353553 0.353553 c
-0.447317 0.25979 -0.5 0.132602 -0.5 0 c
-0.5 -0.132602 -0.447317 -0.25979 -0.353553 -0.353553 c
-0.25979 -0.447317 -0.132602 -0.5 0 -0.5 c
cl

gsave
0.122 0.467 0.706 setrgbcolor
fill
grestore
stroke
grestore
} bind def
674.253 237.318 o
grestore
0.000 setgray
gsave
692.252500 233.818136 translate
0.000000 rotate
0.000000 0 m /V glyphshow
6.090820 0 m /o glyphshow
12.208984 0 m /l glyphshow
14.987305 0 m /t glyphshow
18.908203 0 m /a glyphshow
25.036133 0 m /g glyphshow
31.383789 0 m /e glyphshow
37.536133 0 m /space glyphshow
40.714844 0 m /a glyphshow
46.842773 0 m /c glyphshow
52.340820 0 m /r glyphshow
56.202148 0 m /o glyphshow
62.320312 0 m /s glyphshow
67.530273 0 m /s glyphshow
72.740234 0 m /space glyphshow
75.918945 0 m /e glyphshow
82.071289 0 m /l glyphshow
84.849609 0 m /e glyphshow
91.001953 0 m /c glyphshow
96.500000 0 m /t glyphshow
100.420898 0 m /r glyphshow
104.282227 0 m /o glyphshow
110.400391 0 m /d glyphshow
116.748047 0 m /e glyphshow
122.900391 0 m /s glyphshow
grestore

end
showpage
