%!PS-Adobe-3.0 EPSF-3.0
%%Title: rc-effect_close-up.eps
%%Creator: matplotlib version 3.2.2, http://matplotlib.org/
%%CreationDate: Sun Oct 18 21:13:55 2020
%%Orientation: portrait
%%BoundingBox: -154.8 50.40000000000001 766.8 741.5999999999999
%%EndComments
%%BeginProlog
/mpldict 9 dict def
mpldict begin
/m { moveto } bind def
/l { lineto } bind def
/r { rlineto } bind def
/c { curveto } bind def
/cl { closepath } bind def
/box {
m
1 index 0 r
0 exch r
neg 0 r
cl
} bind def
/clipbox {
box
clip
newpath
} bind def
%!PS-Adobe-3.0 Resource-Font
%%Title: DejaVu Sans
%%Copyright: Copyright (c) 2003 by Bitstream, Inc. All Rights Reserved. Copyright (c) 2006 by Tavmjong Bah. All Rights Reserved. DejaVu changes are in public domain 
%%Creator: Converted from TrueType to type 3 by PPR
25 dict begin
/_d{bind def}bind def
/_m{moveto}_d
/_l{lineto}_d
/_cl{closepath eofill}_d
/_c{curveto}_d
/_sc{7 -1 roll{setcachedevice}{pop pop pop pop pop pop}ifelse}_d
/_e{exec}_d
/FontName /DejaVuSans def
/PaintType 0 def
/FontMatrix[.001 0 0 .001 0 0]def
/FontBBox[-1021 -463 1793 1232]def
/FontType 3 def
/Encoding [ /space /parenleft /parenright /plus /period /slash /zero /one /two /three /four /five /six /seven /eight /nine /equal /H /S /T /W /a /c /d /e /g /h /i /k /l /m /n /o /p /q /r /s /t /u /w /x /z /minus ] def
/FontInfo 10 dict dup begin
/FamilyName (DejaVu Sans) def
/FullName (DejaVu Sans) def
/Notice (Copyright (c) 2003 by Bitstream, Inc. All Rights Reserved. Copyright (c) 2006 by Tavmjong Bah. All Rights Reserved. DejaVu changes are in public domain ) def
/Weight (Book) def
/Version (Version 2.35) def
/ItalicAngle 0.0 def
/isFixedPitch false def
/UnderlinePosition -130 def
/UnderlineThickness 90 def
end readonly def
/CharStrings 44 dict dup begin
/.notdef 0 def
/space{318 0 0 0 0 0 _sc
}_d
/parenleft{390 0 86 -131 310 759 _sc
310 759 _m
266 683 234 609 213 536 _c
191 463 181 389 181 314 _c
181 238 191 164 213 91 _c
234 17 266 -56 310 -131 _c
232 -131 _l
183 -54 146 20 122 94 _c
98 168 86 241 86 314 _c
86 386 98 459 122 533 _c
146 607 182 682 232 759 _c
310 759 _l
_cl}_d
/parenright{390 0 80 -131 304 759 _sc
80 759 _m
158 759 _l
206 682 243 607 267 533 _c
291 459 304 386 304 314 _c
304 241 291 168 267 94 _c
243 20 206 -54 158 -131 _c
80 -131 _l
123 -56 155 17 177 91 _c
198 164 209 238 209 314 _c
209 389 198 463 177 536 _c
155 609 123 683 80 759 _c
_cl}_d
/plus{838 0 106 0 732 627 _sc
460 627 _m
460 355 _l
732 355 _l
732 272 _l
460 272 _l
460 0 _l
378 0 _l
378 272 _l
106 272 _l
106 355 _l
378 355 _l
378 627 _l
460 627 _l
_cl}_d
/period{318 0 107 0 210 124 _sc
107 124 _m
210 124 _l
210 0 _l
107 0 _l
107 124 _l
_cl}_d
/slash{337 0 0 -92 337 729 _sc
254 729 _m
337 729 _l
83 -92 _l
0 -92 _l
254 729 _l
_cl}_d
/zero{636 0 66 -13 570 742 _sc
318 664 _m
267 664 229 639 203 589 _c
177 539 165 464 165 364 _c
165 264 177 189 203 139 _c
229 89 267 64 318 64 _c
369 64 407 89 433 139 _c
458 189 471 264 471 364 _c
471 464 458 539 433 589 _c
407 639 369 664 318 664 _c
318 742 _m
399 742 461 709 505 645 _c
548 580 570 486 570 364 _c
570 241 548 147 505 83 _c
461 19 399 -13 318 -13 _c
236 -13 173 19 130 83 _c
87 147 66 241 66 364 _c
66 486 87 580 130 645 _c
173 709 236 742 318 742 _c
_cl}_d
/one{636 0 110 0 544 729 _sc
124 83 _m
285 83 _l
285 639 _l
110 604 _l
110 694 _l
284 729 _l
383 729 _l
383 83 _l
544 83 _l
544 0 _l
124 0 _l
124 83 _l
_cl}_d
/two{{636 0 73 0 536 742 _sc
192 83 _m
536 83 _l
536 0 _l
73 0 _l
73 83 _l
110 121 161 173 226 239 _c
290 304 331 346 348 365 _c
380 400 402 430 414 455 _c
426 479 433 504 433 528 _c
433 566 419 598 392 622 _c
365 646 330 659 286 659 _c
255 659 222 653 188 643 _c
154 632 117 616 78 594 _c
78 694 _l
118 710 155 722 189 730 _c
223 738 255 742 284 742 _c
}_e{359 742 419 723 464 685 _c
509 647 532 597 532 534 _c
532 504 526 475 515 449 _c
504 422 484 390 454 354 _c
446 344 420 317 376 272 _c
332 227 271 164 192 83 _c
_cl}_e}_d
/three{{636 0 76 -13 556 742 _sc
406 393 _m
453 383 490 362 516 330 _c
542 298 556 258 556 212 _c
556 140 531 84 482 45 _c
432 6 362 -13 271 -13 _c
240 -13 208 -10 176 -4 _c
144 1 110 10 76 22 _c
76 117 _l
103 101 133 89 166 81 _c
198 73 232 69 268 69 _c
330 69 377 81 409 105 _c
441 129 458 165 458 212 _c
458 254 443 288 413 312 _c
383 336 341 349 287 349 _c
}_e{202 349 _l
202 430 _l
291 430 _l
339 430 376 439 402 459 _c
428 478 441 506 441 543 _c
441 580 427 609 401 629 _c
374 649 336 659 287 659 _c
260 659 231 656 200 650 _c
169 644 135 635 98 623 _c
98 711 _l
135 721 170 729 203 734 _c
235 739 266 742 296 742 _c
370 742 429 725 473 691 _c
517 657 539 611 539 553 _c
539 513 527 479 504 451 _c
481 423 448 403 406 393 _c
_cl}_e}_d
/four{636 0 49 0 580 729 _sc
378 643 _m
129 254 _l
378 254 _l
378 643 _l
352 729 _m
476 729 _l
476 254 _l
580 254 _l
580 172 _l
476 172 _l
476 0 _l
378 0 _l
378 172 _l
49 172 _l
49 267 _l
352 729 _l
_cl}_d
/five{{636 0 77 -13 549 729 _sc
108 729 _m
495 729 _l
495 646 _l
198 646 _l
198 467 _l
212 472 227 476 241 478 _c
255 480 270 482 284 482 _c
365 482 429 459 477 415 _c
525 370 549 310 549 234 _c
549 155 524 94 475 51 _c
426 8 357 -13 269 -13 _c
238 -13 207 -10 175 -6 _c
143 -1 111 6 77 17 _c
77 116 _l
106 100 136 88 168 80 _c
199 72 232 69 267 69 _c
}_e{323 69 368 83 401 113 _c
433 143 450 183 450 234 _c
450 284 433 324 401 354 _c
368 384 323 399 267 399 _c
241 399 214 396 188 390 _c
162 384 135 375 108 363 _c
108 729 _l
_cl}_e}_d
/six{{636 0 70 -13 573 742 _sc
330 404 _m
286 404 251 388 225 358 _c
199 328 186 286 186 234 _c
186 181 199 139 225 109 _c
251 79 286 64 330 64 _c
374 64 409 79 435 109 _c
461 139 474 181 474 234 _c
474 286 461 328 435 358 _c
409 388 374 404 330 404 _c
526 713 _m
526 623 _l
501 635 476 644 451 650 _c
425 656 400 659 376 659 _c
310 659 260 637 226 593 _c
}_e{192 549 172 482 168 394 _c
187 422 211 444 240 459 _c
269 474 301 482 336 482 _c
409 482 467 459 509 415 _c
551 371 573 310 573 234 _c
573 159 550 99 506 54 _c
462 9 403 -13 330 -13 _c
246 -13 181 19 137 83 _c
92 147 70 241 70 364 _c
70 479 97 571 152 639 _c
206 707 280 742 372 742 _c
396 742 421 739 447 735 _c
472 730 498 723 526 713 _c
_cl}_e}_d
/seven{636 0 82 0 551 729 _sc
82 729 _m
551 729 _l
551 687 _l
286 0 _l
183 0 _l
432 646 _l
82 646 _l
82 729 _l
_cl}_d
/eight{{636 0 68 -13 568 742 _sc
318 346 _m
271 346 234 333 207 308 _c
180 283 167 249 167 205 _c
167 161 180 126 207 101 _c
234 76 271 64 318 64 _c
364 64 401 76 428 102 _c
455 127 469 161 469 205 _c
469 249 455 283 429 308 _c
402 333 365 346 318 346 _c
219 388 _m
177 398 144 418 120 447 _c
96 476 85 511 85 553 _c
85 611 105 657 147 691 _c
188 725 245 742 318 742 _c
}_e{390 742 447 725 489 691 _c
530 657 551 611 551 553 _c
551 511 539 476 515 447 _c
491 418 459 398 417 388 _c
464 377 501 355 528 323 _c
554 291 568 251 568 205 _c
568 134 546 80 503 43 _c
459 5 398 -13 318 -13 _c
237 -13 175 5 132 43 _c
89 80 68 134 68 205 _c
68 251 81 291 108 323 _c
134 355 171 377 219 388 _c
183 544 _m
183 506 194 476 218 455 _c
}_e{242 434 275 424 318 424 _c
360 424 393 434 417 455 _c
441 476 453 506 453 544 _c
453 582 441 611 417 632 _c
393 653 360 664 318 664 _c
275 664 242 653 218 632 _c
194 611 183 582 183 544 _c
_cl}_e}_d
/nine{{636 0 63 -13 566 742 _sc
110 15 _m
110 105 _l
134 93 159 84 185 78 _c
210 72 235 69 260 69 _c
324 69 374 90 408 134 _c
442 178 462 244 468 334 _c
448 306 424 284 396 269 _c
367 254 335 247 300 247 _c
226 247 168 269 126 313 _c
84 357 63 417 63 494 _c
63 568 85 628 129 674 _c
173 719 232 742 306 742 _c
390 742 455 709 499 645 _c
543 580 566 486 566 364 _c
}_e{566 248 538 157 484 89 _c
429 21 356 -13 264 -13 _c
239 -13 214 -10 189 -6 _c
163 -2 137 5 110 15 _c
306 324 _m
350 324 385 339 411 369 _c
437 399 450 441 450 494 _c
450 546 437 588 411 618 _c
385 648 350 664 306 664 _c
262 664 227 648 201 618 _c
175 588 162 546 162 494 _c
162 441 175 399 201 369 _c
227 339 262 324 306 324 _c
_cl}_e}_d
/equal{838 0 106 172 732 454 _sc
106 454 _m
732 454 _l
732 372 _l
106 372 _l
106 454 _l
106 255 _m
732 255 _l
732 172 _l
106 172 _l
106 255 _l
_cl}_d
/H{752 0 98 0 654 729 _sc
98 729 _m
197 729 _l
197 430 _l
555 430 _l
555 729 _l
654 729 _l
654 0 _l
555 0 _l
555 347 _l
197 347 _l
197 0 _l
98 0 _l
98 729 _l
_cl}_d
/S{{635 0 66 -13 579 742 _sc
535 705 _m
535 609 _l
497 627 462 640 429 649 _c
395 657 363 662 333 662 _c
279 662 237 651 208 631 _c
179 610 165 580 165 542 _c
165 510 174 485 194 469 _c
213 452 250 439 304 429 _c
364 417 _l
437 403 491 378 526 343 _c
561 307 579 260 579 201 _c
579 130 555 77 508 41 _c
460 5 391 -13 300 -13 _c
265 -13 228 -9 189 -2 _c
}_e{150 5 110 16 69 32 _c
69 134 _l
109 111 148 94 186 83 _c
224 71 262 66 300 66 _c
356 66 399 77 430 99 _c
460 121 476 152 476 194 _c
476 230 465 258 443 278 _c
421 298 385 313 335 323 _c
275 335 _l
201 349 148 372 115 404 _c
82 435 66 478 66 534 _c
66 598 88 649 134 686 _c
179 723 242 742 322 742 _c
356 742 390 739 426 733 _c
461 727 497 717 535 705 _c
}_e{_cl}_e}_d
/T{611 0 -2 0 614 729 _sc
-2 729 _m
614 729 _l
614 646 _l
355 646 _l
355 0 _l
256 0 _l
256 646 _l
-2 646 _l
-2 729 _l
_cl}_d
/W{989 0 33 0 956 729 _sc
33 729 _m
133 729 _l
286 113 _l
439 729 _l
550 729 _l
703 113 _l
856 729 _l
956 729 _l
773 0 _l
649 0 _l
495 633 _l
340 0 _l
216 0 _l
33 729 _l
_cl}_d
/a{{613 0 60 -13 522 560 _sc
343 275 _m
270 275 220 266 192 250 _c
164 233 150 205 150 165 _c
150 133 160 107 181 89 _c
202 70 231 61 267 61 _c
317 61 357 78 387 114 _c
417 149 432 196 432 255 _c
432 275 _l
343 275 _l
522 312 _m
522 0 _l
432 0 _l
432 83 _l
411 49 385 25 355 10 _c
325 -5 287 -13 243 -13 _c
187 -13 142 2 109 33 _c
76 64 60 106 60 159 _c
}_e{60 220 80 266 122 298 _c
163 329 224 345 306 345 _c
432 345 _l
432 354 _l
432 395 418 427 391 450 _c
364 472 326 484 277 484 _c
245 484 215 480 185 472 _c
155 464 127 453 100 439 _c
100 522 _l
132 534 164 544 195 550 _c
226 556 256 560 286 560 _c
365 560 424 539 463 498 _c
502 457 522 395 522 312 _c
_cl}_e}_d
/c{{550 0 55 -13 488 560 _sc
488 526 _m
488 442 _l
462 456 437 466 411 473 _c
385 480 360 484 334 484 _c
276 484 230 465 198 428 _c
166 391 150 339 150 273 _c
150 206 166 154 198 117 _c
230 80 276 62 334 62 _c
360 62 385 65 411 72 _c
437 79 462 90 488 104 _c
488 21 _l
462 9 436 0 410 -5 _c
383 -10 354 -13 324 -13 _c
242 -13 176 12 128 64 _c
}_e{79 115 55 185 55 273 _c
55 362 79 432 128 483 _c
177 534 244 560 330 560 _c
358 560 385 557 411 551 _c
437 545 463 537 488 526 _c
_cl}_e}_d
/d{{635 0 55 -13 544 760 _sc
454 464 _m
454 760 _l
544 760 _l
544 0 _l
454 0 _l
454 82 _l
435 49 411 25 382 10 _c
353 -5 319 -13 279 -13 _c
213 -13 159 13 117 65 _c
75 117 55 187 55 273 _c
55 359 75 428 117 481 _c
159 533 213 560 279 560 _c
319 560 353 552 382 536 _c
411 520 435 496 454 464 _c
148 273 _m
148 207 161 155 188 117 _c
215 79 253 61 301 61 _c
}_e{348 61 385 79 413 117 _c
440 155 454 207 454 273 _c
454 339 440 390 413 428 _c
385 466 348 485 301 485 _c
253 485 215 466 188 428 _c
161 390 148 339 148 273 _c
_cl}_e}_d
/e{{615 0 55 -13 562 560 _sc
562 296 _m
562 252 _l
149 252 _l
153 190 171 142 205 110 _c
238 78 284 62 344 62 _c
378 62 412 66 444 74 _c
476 82 509 95 541 113 _c
541 28 _l
509 14 476 3 442 -3 _c
408 -9 373 -13 339 -13 _c
251 -13 182 12 131 62 _c
80 112 55 181 55 268 _c
55 357 79 428 127 481 _c
175 533 241 560 323 560 _c
397 560 455 536 498 489 _c
}_e{540 441 562 377 562 296 _c
472 322 _m
471 371 457 410 431 440 _c
404 469 368 484 324 484 _c
274 484 234 469 204 441 _c
174 413 156 373 152 322 _c
472 322 _l
_cl}_e}_d
/g{{635 0 55 -207 544 560 _sc
454 280 _m
454 344 440 395 414 431 _c
387 467 349 485 301 485 _c
253 485 215 467 188 431 _c
161 395 148 344 148 280 _c
148 215 161 165 188 129 _c
215 93 253 75 301 75 _c
349 75 387 93 414 129 _c
440 165 454 215 454 280 _c
544 68 _m
544 -24 523 -93 482 -139 _c
440 -184 377 -207 292 -207 _c
260 -207 231 -204 203 -200 _c
175 -195 147 -188 121 -178 _c
}_e{121 -91 _l
147 -105 173 -115 199 -122 _c
225 -129 251 -133 278 -133 _c
336 -133 380 -117 410 -87 _c
439 -56 454 -10 454 52 _c
454 96 _l
435 64 411 40 382 24 _c
353 8 319 0 279 0 _c
211 0 157 25 116 76 _c
75 127 55 195 55 280 _c
55 364 75 432 116 483 _c
157 534 211 560 279 560 _c
319 560 353 552 382 536 _c
411 520 435 496 454 464 _c
454 547 _l
544 547 _l
}_e{544 68 _l
_cl}_e}_d
/h{634 0 91 0 549 760 _sc
549 330 _m
549 0 _l
459 0 _l
459 327 _l
459 379 448 417 428 443 _c
408 469 378 482 338 482 _c
289 482 251 466 223 435 _c
195 404 181 362 181 309 _c
181 0 _l
91 0 _l
91 760 _l
181 760 _l
181 462 _l
202 494 227 519 257 535 _c
286 551 320 560 358 560 _c
420 560 468 540 500 501 _c
532 462 549 405 549 330 _c
_cl}_d
/i{278 0 94 0 184 760 _sc
94 547 _m
184 547 _l
184 0 _l
94 0 _l
94 547 _l
94 760 _m
184 760 _l
184 646 _l
94 646 _l
94 760 _l
_cl}_d
/k{579 0 91 0 576 760 _sc
91 760 _m
181 760 _l
181 311 _l
449 547 _l
564 547 _l
274 291 _l
576 0 _l
459 0 _l
181 267 _l
181 0 _l
91 0 _l
91 760 _l
_cl}_d
/l{278 0 94 0 184 760 _sc
94 760 _m
184 760 _l
184 0 _l
94 0 _l
94 760 _l
_cl}_d
/m{{974 0 91 0 889 560 _sc
520 442 _m
542 482 569 511 600 531 _c
631 550 668 560 711 560 _c
767 560 811 540 842 500 _c
873 460 889 403 889 330 _c
889 0 _l
799 0 _l
799 327 _l
799 379 789 418 771 444 _c
752 469 724 482 686 482 _c
639 482 602 466 575 435 _c
548 404 535 362 535 309 _c
535 0 _l
445 0 _l
445 327 _l
445 379 435 418 417 444 _c
398 469 369 482 331 482 _c
}_e{285 482 248 466 221 435 _c
194 404 181 362 181 309 _c
181 0 _l
91 0 _l
91 547 _l
181 547 _l
181 462 _l
201 495 226 520 255 536 _c
283 552 317 560 357 560 _c
397 560 430 550 458 530 _c
486 510 506 480 520 442 _c
_cl}_e}_d
/n{634 0 91 0 549 560 _sc
549 330 _m
549 0 _l
459 0 _l
459 327 _l
459 379 448 417 428 443 _c
408 469 378 482 338 482 _c
289 482 251 466 223 435 _c
195 404 181 362 181 309 _c
181 0 _l
91 0 _l
91 547 _l
181 547 _l
181 462 _l
202 494 227 519 257 535 _c
286 551 320 560 358 560 _c
420 560 468 540 500 501 _c
532 462 549 405 549 330 _c
_cl}_d
/o{612 0 55 -13 557 560 _sc
306 484 _m
258 484 220 465 192 427 _c
164 389 150 338 150 273 _c
150 207 163 156 191 118 _c
219 80 257 62 306 62 _c
354 62 392 80 420 118 _c
448 156 462 207 462 273 _c
462 337 448 389 420 427 _c
392 465 354 484 306 484 _c
306 560 _m
384 560 445 534 490 484 _c
534 433 557 363 557 273 _c
557 183 534 113 490 63 _c
445 12 384 -13 306 -13 _c
227 -13 165 12 121 63 _c
77 113 55 183 55 273 _c
55 363 77 433 121 484 _c
165 534 227 560 306 560 _c
_cl}_d
/p{{635 0 91 -207 580 560 _sc
181 82 _m
181 -207 _l
91 -207 _l
91 547 _l
181 547 _l
181 464 _l
199 496 223 520 252 536 _c
281 552 316 560 356 560 _c
422 560 476 533 518 481 _c
559 428 580 359 580 273 _c
580 187 559 117 518 65 _c
476 13 422 -13 356 -13 _c
316 -13 281 -5 252 10 _c
223 25 199 49 181 82 _c
487 273 _m
487 339 473 390 446 428 _c
418 466 381 485 334 485 _c
}_e{286 485 249 466 222 428 _c
194 390 181 339 181 273 _c
181 207 194 155 222 117 _c
249 79 286 61 334 61 _c
381 61 418 79 446 117 _c
473 155 487 207 487 273 _c
_cl}_e}_d
/q{{635 0 55 -207 544 560 _sc
148 273 _m
148 207 161 155 188 117 _c
215 79 253 61 301 61 _c
348 61 385 79 413 117 _c
440 155 454 207 454 273 _c
454 339 440 390 413 428 _c
385 466 348 485 301 485 _c
253 485 215 466 188 428 _c
161 390 148 339 148 273 _c
454 82 _m
435 49 411 25 382 10 _c
353 -5 319 -13 279 -13 _c
213 -13 159 13 117 65 _c
75 117 55 187 55 273 _c
}_e{55 359 75 428 117 481 _c
159 533 213 560 279 560 _c
319 560 353 552 382 536 _c
411 520 435 496 454 464 _c
454 547 _l
544 547 _l
544 -207 _l
454 -207 _l
454 82 _l
_cl}_e}_d
/r{411 0 91 0 411 560 _sc
411 463 _m
401 469 390 473 378 476 _c
366 478 353 480 339 480 _c
288 480 249 463 222 430 _c
194 397 181 350 181 288 _c
181 0 _l
91 0 _l
91 547 _l
181 547 _l
181 462 _l
199 495 224 520 254 536 _c
284 552 321 560 365 560 _c
371 560 378 559 386 559 _c
393 558 401 557 411 555 _c
411 463 _l
_cl}_d
/s{{521 0 54 -13 472 560 _sc
443 531 _m
443 446 _l
417 458 391 468 364 475 _c
336 481 308 485 279 485 _c
234 485 200 478 178 464 _c
156 450 145 430 145 403 _c
145 382 153 366 169 354 _c
185 342 217 330 265 320 _c
296 313 _l
360 299 405 279 432 255 _c
458 230 472 195 472 151 _c
472 100 452 60 412 31 _c
372 1 316 -13 246 -13 _c
216 -13 186 -10 154 -5 _c
}_e{122 0 89 8 54 20 _c
54 113 _l
87 95 120 82 152 74 _c
184 65 216 61 248 61 _c
290 61 323 68 346 82 _c
368 96 380 117 380 144 _c
380 168 371 187 355 200 _c
339 213 303 226 247 238 _c
216 245 _l
160 257 119 275 95 299 _c
70 323 58 356 58 399 _c
58 450 76 490 112 518 _c
148 546 200 560 268 560 _c
301 560 332 557 362 552 _c
391 547 418 540 443 531 _c
}_e{_cl}_e}_d
/t{392 0 27 0 368 702 _sc
183 702 _m
183 547 _l
368 547 _l
368 477 _l
183 477 _l
183 180 _l
183 135 189 106 201 94 _c
213 81 238 75 276 75 _c
368 75 _l
368 0 _l
276 0 _l
206 0 158 13 132 39 _c
106 65 93 112 93 180 _c
93 477 _l
27 477 _l
27 547 _l
93 547 _l
93 702 _l
183 702 _l
_cl}_d
/u{634 0 85 -13 543 560 _sc
85 216 _m
85 547 _l
175 547 _l
175 219 _l
175 167 185 129 205 103 _c
225 77 255 64 296 64 _c
344 64 383 79 411 110 _c
439 141 453 183 453 237 _c
453 547 _l
543 547 _l
543 0 _l
453 0 _l
453 84 _l
431 50 405 26 377 10 _c
348 -5 315 -13 277 -13 _c
214 -13 166 6 134 45 _c
101 83 85 140 85 216 _c
311 560 _m
311 560 _l
_cl}_d
/w{818 0 42 0 776 547 _sc
42 547 _m
132 547 _l
244 120 _l
356 547 _l
462 547 _l
574 120 _l
686 547 _l
776 547 _l
633 0 _l
527 0 _l
409 448 _l
291 0 _l
185 0 _l
42 547 _l
_cl}_d
/x{592 0 29 0 559 547 _sc
549 547 _m
351 281 _l
559 0 _l
453 0 _l
294 215 _l
135 0 _l
29 0 _l
241 286 _l
47 547 _l
153 547 _l
298 352 _l
443 547 _l
549 547 _l
_cl}_d
/z{525 0 43 0 482 547 _sc
55 547 _m
482 547 _l
482 465 _l
144 72 _l
482 72 _l
482 0 _l
43 0 _l
43 82 _l
381 475 _l
55 475 _l
55 547 _l
_cl}_d
/minus{838 0 106 272 732 355 _sc
106 355 _m
732 355 _l
732 272 _l
106 272 _l
106 355 _l
_cl}_d
end readonly def

/BuildGlyph
 {exch begin
 CharStrings exch
 2 copy known not{pop /.notdef}if
 true 3 1 roll get exec
 end}_d

/BuildChar {
 1 index /Encoding get exch get
 1 index /BuildGlyph get exec
}_d

FontName currentdict end definefont pop
%!PS-Adobe-3.0 Resource-Font
%%Title: DejaVu Sans Oblique
%%Copyright: Copyright (c) 2003 by Bitstream, Inc. All Rights Reserved. Copyright (c) 2006 by Tavmjong Bah. All Rights Reserved. DejaVu changes are in public domain 
%%Creator: Converted from TrueType to type 3 by PPR
25 dict begin
/_d{bind def}bind def
/_m{moveto}_d
/_l{lineto}_d
/_cl{closepath eofill}_d
/_c{curveto}_d
/_sc{7 -1 roll{setcachedevice}{pop pop pop pop pop pop}ifelse}_d
/_e{exec}_d
/FontName /DejaVuSans-Oblique def
/PaintType 0 def
/FontMatrix[.001 0 0 .001 0 0]def
/FontBBox[-1016 -350 1659 1068]def
/FontType 3 def
/Encoding [ /f /t /x ] def
/FontInfo 10 dict dup begin
/FamilyName (DejaVu Sans) def
/FullName (DejaVu Sans Oblique) def
/Notice (Copyright (c) 2003 by Bitstream, Inc. All Rights Reserved. Copyright (c) 2006 by Tavmjong Bah. All Rights Reserved. DejaVu changes are in public domain ) def
/Weight (Oblique) def
/Version (Version 2.35) def
/ItalicAngle -11.0 def
/isFixedPitch false def
/UnderlinePosition -130 def
/UnderlineThickness 90 def
end readonly def
/CharStrings 4 dict dup begin
/.notdef 0 def
/f{352 0 68 0 478 760 _sc
478 760 _m
464 685 _l
378 685 _l
345 685 321 678 307 665 _c
292 652 281 629 274 595 _c
264 547 _l
412 547 _l
399 477 _l
251 477 _l
158 0 _l
68 0 _l
161 477 _l
75 477 _l
88 547 _l
174 547 _l
181 585 _l
193 649 215 695 246 721 _c
277 747 326 760 393 760 _c
478 760 _l
_cl}_d
/t{{392 0 64 0 423 702 _sc
423 547 _m
409 477 _l
230 477 _l
172 180 _l
170 169 168 160 167 152 _c
166 144 166 139 166 135 _c
166 114 172 99 185 89 _c
197 79 217 75 245 75 _c
336 75 _l
321 0 _l
235 0 _l
181 0 141 10 115 31 _c
89 52 76 84 76 126 _c
76 133 76 141 77 150 _c
78 159 80 169 82 180 _c
140 477 _l
64 477 _l
78 547 _l
153 547 _l
183 702 _l
}_e{273 702 _l
243 547 _l
423 547 _l
_cl}_e}_d
/x{592 0 -25 0 600 547 _sc
600 547 _m
349 279 _l
503 0 _l
400 0 _l
284 217 _l
83 0 _l
-25 0 _l
243 288 _l
100 547 _l
203 547 _l
308 349 _l
491 547 _l
600 547 _l
_cl}_d
end readonly def

/BuildGlyph
 {exch begin
 CharStrings exch
 2 copy known not{pop /.notdef}if
 true 3 1 roll get exec
 end}_d

/BuildChar {
 1 index /Encoding get exch get
 1 index /BuildGlyph get exec
}_d

FontName currentdict end definefont pop
end
%%EndProlog
mpldict begin
-154.8 50.4 translate
921.6 691.2 0 0 clipbox
gsave
0 0 m
921.6 0 l
921.6 691.2 l
0 691.2 l
cl
1.000 setgray
fill
grestore
gsave
115.2 86.4 m
829.44 86.4 l
829.44 608.256 l
115.2 608.256 l
cl
1.000 setgray
fill
grestore
0.800 setlinewidth
1 setlinejoin
2 setlinecap
[] 0 setdash
0.690 setgray
gsave
714.2 521.9 115.2 86.4 clipbox
147.665455 86.4 m
147.665455 608.256 l
stroke
grestore
0 setlinecap
0.000 setgray
gsave
/o {
gsave
newpath
translate
0.8 setlinewidth
1 setlinejoin
0 setlinecap
0 0 m
0 -3.5 l

gsave
0.000 setgray
fill
grestore
stroke
grestore
} bind def
147.665 86.4 o
grestore
/DejaVuSans findfont
10.000 scalefont
setfont
gsave
133.352955 71.806250 translate
0.000000 rotate
0.000000 0 m /zero glyphshow
6.362305 0 m /period glyphshow
9.541016 0 m /zero glyphshow
15.903320 0 m /zero glyphshow
22.265625 0 m /zero glyphshow
grestore
2 setlinecap
0.690 setgray
gsave
714.2 521.9 115.2 86.4 clipbox
228.910336 86.4 m
228.910336 608.256 l
stroke
grestore
0 setlinecap
0.000 setgray
gsave
/o {
gsave
newpath
translate
0.8 setlinewidth
1 setlinejoin
0 setlinecap
0 0 m
0 -3.5 l

gsave
0.000 setgray
fill
grestore
stroke
grestore
} bind def
228.91 86.4 o
grestore
gsave
214.597836 71.806250 translate
0.000000 rotate
0.000000 0 m /zero glyphshow
6.362305 0 m /period glyphshow
9.541016 0 m /zero glyphshow
15.903320 0 m /two glyphshow
22.265625 0 m /five glyphshow
grestore
2 setlinecap
0.690 setgray
gsave
714.2 521.9 115.2 86.4 clipbox
310.155217 86.4 m
310.155217 608.256 l
stroke
grestore
0 setlinecap
0.000 setgray
gsave
/o {
gsave
newpath
translate
0.8 setlinewidth
1 setlinejoin
0 setlinecap
0 0 m
0 -3.5 l

gsave
0.000 setgray
fill
grestore
stroke
grestore
} bind def
310.155 86.4 o
grestore
gsave
295.842717 71.806250 translate
0.000000 rotate
0.000000 0 m /zero glyphshow
6.362305 0 m /period glyphshow
9.541016 0 m /zero glyphshow
15.903320 0 m /five glyphshow
22.265625 0 m /zero glyphshow
grestore
2 setlinecap
0.690 setgray
gsave
714.2 521.9 115.2 86.4 clipbox
391.400098 86.4 m
391.400098 608.256 l
stroke
grestore
0 setlinecap
0.000 setgray
gsave
/o {
gsave
newpath
translate
0.8 setlinewidth
1 setlinejoin
0 setlinecap
0 0 m
0 -3.5 l

gsave
0.000 setgray
fill
grestore
stroke
grestore
} bind def
391.4 86.4 o
grestore
gsave
377.087598 71.806250 translate
0.000000 rotate
0.000000 0 m /zero glyphshow
6.362305 0 m /period glyphshow
9.541016 0 m /zero glyphshow
15.903320 0 m /seven glyphshow
22.265625 0 m /five glyphshow
grestore
2 setlinecap
0.690 setgray
gsave
714.2 521.9 115.2 86.4 clipbox
472.64498 86.4 m
472.64498 608.256 l
stroke
grestore
0 setlinecap
0.000 setgray
gsave
/o {
gsave
newpath
translate
0.8 setlinewidth
1 setlinejoin
0 setlinecap
0 0 m
0 -3.5 l

gsave
0.000 setgray
fill
grestore
stroke
grestore
} bind def
472.645 86.4 o
grestore
gsave
458.332480 71.806250 translate
0.000000 rotate
0.000000 0 m /zero glyphshow
6.362305 0 m /period glyphshow
9.541016 0 m /one glyphshow
15.903320 0 m /zero glyphshow
22.265625 0 m /zero glyphshow
grestore
2 setlinecap
0.690 setgray
gsave
714.2 521.9 115.2 86.4 clipbox
553.889861 86.4 m
553.889861 608.256 l
stroke
grestore
0 setlinecap
0.000 setgray
gsave
/o {
gsave
newpath
translate
0.8 setlinewidth
1 setlinejoin
0 setlinecap
0 0 m
0 -3.5 l

gsave
0.000 setgray
fill
grestore
stroke
grestore
} bind def
553.89 86.4 o
grestore
gsave
539.577361 71.806250 translate
0.000000 rotate
0.000000 0 m /zero glyphshow
6.362305 0 m /period glyphshow
9.541016 0 m /one glyphshow
15.903320 0 m /two glyphshow
22.265625 0 m /five glyphshow
grestore
2 setlinecap
0.690 setgray
gsave
714.2 521.9 115.2 86.4 clipbox
635.134742 86.4 m
635.134742 608.256 l
stroke
grestore
0 setlinecap
0.000 setgray
gsave
/o {
gsave
newpath
translate
0.8 setlinewidth
1 setlinejoin
0 setlinecap
0 0 m
0 -3.5 l

gsave
0.000 setgray
fill
grestore
stroke
grestore
} bind def
635.135 86.4 o
grestore
gsave
620.822242 71.806250 translate
0.000000 rotate
0.000000 0 m /zero glyphshow
6.362305 0 m /period glyphshow
9.541016 0 m /one glyphshow
15.903320 0 m /five glyphshow
22.265625 0 m /zero glyphshow
grestore
2 setlinecap
0.690 setgray
gsave
714.2 521.9 115.2 86.4 clipbox
716.379623 86.4 m
716.379623 608.256 l
stroke
grestore
0 setlinecap
0.000 setgray
gsave
/o {
gsave
newpath
translate
0.8 setlinewidth
1 setlinejoin
0 setlinecap
0 0 m
0 -3.5 l

gsave
0.000 setgray
fill
grestore
stroke
grestore
} bind def
716.38 86.4 o
grestore
gsave
702.067123 71.806250 translate
0.000000 rotate
0.000000 0 m /zero glyphshow
6.362305 0 m /period glyphshow
9.541016 0 m /one glyphshow
15.903320 0 m /seven glyphshow
22.265625 0 m /five glyphshow
grestore
2 setlinecap
0.690 setgray
gsave
714.2 521.9 115.2 86.4 clipbox
797.624505 86.4 m
797.624505 608.256 l
stroke
grestore
0 setlinecap
0.000 setgray
gsave
/o {
gsave
newpath
translate
0.8 setlinewidth
1 setlinejoin
0 setlinecap
0 0 m
0 -3.5 l

gsave
0.000 setgray
fill
grestore
stroke
grestore
} bind def
797.625 86.4 o
grestore
gsave
783.312005 71.806250 translate
0.000000 rotate
0.000000 0 m /zero glyphshow
6.362305 0 m /period glyphshow
9.541016 0 m /two glyphshow
15.903320 0 m /zero glyphshow
22.265625 0 m /zero glyphshow
grestore
gsave
449.280937 58.134375 translate
0.000000 rotate
0.000000 0 m /T glyphshow
5.858398 0 m /i glyphshow
8.636719 0 m /m glyphshow
18.377930 0 m /e glyphshow
24.530273 0 m /space glyphshow
27.708984 0 m /slash glyphshow
31.078125 0 m /m glyphshow
40.819336 0 m /s glyphshow
grestore
2 setlinecap
0.690 setgray
gsave
714.2 521.9 115.2 86.4 clipbox
115.2 114.77185 m
829.44 114.77185 l
stroke
grestore
0 setlinecap
0.000 setgray
gsave
/o {
gsave
newpath
translate
0.8 setlinewidth
1 setlinejoin
0 setlinecap
0 0 m
-3.5 0 l

gsave
0.000 setgray
fill
grestore
stroke
grestore
} bind def
115.2 114.772 o
grestore
gsave
85.934375 110.974975 translate
0.000000 rotate
0.000000 0 m /zero glyphshow
6.362305 0 m /period glyphshow
9.541016 0 m /zero glyphshow
15.903320 0 m /eight glyphshow
grestore
2 setlinecap
0.690 setgray
gsave
714.2 521.9 115.2 86.4 clipbox
115.2 190.352599 m
829.44 190.352599 l
stroke
grestore
0 setlinecap
0.000 setgray
gsave
/o {
gsave
newpath
translate
0.8 setlinewidth
1 setlinejoin
0 setlinecap
0 0 m
-3.5 0 l

gsave
0.000 setgray
fill
grestore
stroke
grestore
} bind def
115.2 190.353 o
grestore
gsave
85.934375 186.555724 translate
0.000000 rotate
0.000000 0 m /zero glyphshow
6.362305 0 m /period glyphshow
9.541016 0 m /zero glyphshow
15.903320 0 m /nine glyphshow
grestore
2 setlinecap
0.690 setgray
gsave
714.2 521.9 115.2 86.4 clipbox
115.2 265.933348 m
829.44 265.933348 l
stroke
grestore
0 setlinecap
0.000 setgray
gsave
/o {
gsave
newpath
translate
0.8 setlinewidth
1 setlinejoin
0 setlinecap
0 0 m
-3.5 0 l

gsave
0.000 setgray
fill
grestore
stroke
grestore
} bind def
115.2 265.933 o
grestore
gsave
85.934375 262.136473 translate
0.000000 rotate
0.000000 0 m /zero glyphshow
6.362305 0 m /period glyphshow
9.541016 0 m /one glyphshow
15.903320 0 m /zero glyphshow
grestore
2 setlinecap
0.690 setgray
gsave
714.2 521.9 115.2 86.4 clipbox
115.2 341.514096 m
829.44 341.514096 l
stroke
grestore
0 setlinecap
0.000 setgray
gsave
/o {
gsave
newpath
translate
0.8 setlinewidth
1 setlinejoin
0 setlinecap
0 0 m
-3.5 0 l

gsave
0.000 setgray
fill
grestore
stroke
grestore
} bind def
115.2 341.514 o
grestore
gsave
85.934375 337.717221 translate
0.000000 rotate
0.000000 0 m /zero glyphshow
6.362305 0 m /period glyphshow
9.541016 0 m /one glyphshow
15.903320 0 m /one glyphshow
grestore
2 setlinecap
0.690 setgray
gsave
714.2 521.9 115.2 86.4 clipbox
115.2 417.094845 m
829.44 417.094845 l
stroke
grestore
0 setlinecap
0.000 setgray
gsave
/o {
gsave
newpath
translate
0.8 setlinewidth
1 setlinejoin
0 setlinecap
0 0 m
-3.5 0 l

gsave
0.000 setgray
fill
grestore
stroke
grestore
} bind def
115.2 417.095 o
grestore
gsave
85.934375 413.297970 translate
0.000000 rotate
0.000000 0 m /zero glyphshow
6.362305 0 m /period glyphshow
9.541016 0 m /one glyphshow
15.903320 0 m /two glyphshow
grestore
2 setlinecap
0.690 setgray
gsave
714.2 521.9 115.2 86.4 clipbox
115.2 492.675594 m
829.44 492.675594 l
stroke
grestore
0 setlinecap
0.000 setgray
gsave
/o {
gsave
newpath
translate
0.8 setlinewidth
1 setlinejoin
0 setlinecap
0 0 m
-3.5 0 l

gsave
0.000 setgray
fill
grestore
stroke
grestore
} bind def
115.2 492.676 o
grestore
gsave
85.934375 488.878719 translate
0.000000 rotate
0.000000 0 m /zero glyphshow
6.362305 0 m /period glyphshow
9.541016 0 m /one glyphshow
15.903320 0 m /three glyphshow
grestore
2 setlinecap
0.690 setgray
gsave
714.2 521.9 115.2 86.4 clipbox
115.2 568.256342 m
829.44 568.256342 l
stroke
grestore
0 setlinecap
0.000 setgray
gsave
/o {
gsave
newpath
translate
0.8 setlinewidth
1 setlinejoin
0 setlinecap
0 0 m
-3.5 0 l

gsave
0.000 setgray
fill
grestore
stroke
grestore
} bind def
115.2 568.256 o
grestore
gsave
85.934375 564.459467 translate
0.000000 rotate
0.000000 0 m /zero glyphshow
6.362305 0 m /period glyphshow
9.541016 0 m /one glyphshow
15.903320 0 m /four glyphshow
grestore
gsave
79.856250 300.382687 translate
90.000000 rotate
0.000000 0 m /o glyphshow
6.118164 0 m /p glyphshow
12.465820 0 m /t glyphshow
16.386719 0 m /i glyphshow
19.165039 0 m /c glyphshow
24.663086 0 m /a glyphshow
30.791016 0 m /l glyphshow
33.569336 0 m /space glyphshow
36.748047 0 m /p glyphshow
43.095703 0 m /o glyphshow
49.213867 0 m /w glyphshow
57.392578 0 m /e glyphshow
63.544922 0 m /r glyphshow
67.656250 0 m /space glyphshow
70.834961 0 m /slash glyphshow
74.204102 0 m /m glyphshow
83.945312 0 m /W glyphshow
grestore
1.500 setlinewidth
2 setlinecap
0.122 0.467 0.706 setrgbcolor
gsave
714.2 521.9 115.2 86.4 clipbox
147.665455 221.747679 m
148.315414 231.049925 l
148.965373 258.956663 l
149.615332 258.956663 l
150.91525 277.561155 l
151.565209 258.956663 l
152.215168 296.165647 l
152.865127 268.258909 l
153.515086 296.165647 l
154.165045 305.467893 l
154.815004 324.072385 l
155.464963 324.072385 l
156.764881 342.676877 l
157.41484 333.374631 l
158.064799 351.979123 l
158.714758 342.676877 l
159.364717 351.979123 l
160.014676 370.583615 l
160.664636 370.583615 l
161.314595 389.188107 l
162.614513 389.188107 l
163.914431 407.792599 l
164.56439 398.490353 l
165.214349 398.490353 l
166.514267 417.094845 l
167.164226 407.792599 l
169.114103 435.699337 l
169.764062 435.699337 l
170.414021 445.001583 l
171.06398 445.001583 l
171.713939 454.303829 l
172.363898 445.001583 l
173.663817 463.606075 l
174.313776 454.303829 l
174.963735 472.908321 l
175.613694 482.210567 l
176.263653 463.606075 l
176.913612 472.908321 l
178.21353 472.908321 l
178.863489 491.512813 l
179.513448 482.210567 l
180.163407 500.815059 l
180.813366 482.210567 l
182.113284 500.815059 l
182.763243 491.512813 l
183.413202 500.815059 l
184.063161 500.815059 l
184.71312 519.419551 l
186.013038 500.815059 l
186.662998 510.117305 l
187.312957 510.117305 l
187.962916 500.815059 l
188.612875 519.419551 l
189.912793 519.419551 l
190.562752 510.117305 l
191.212711 519.419551 l
191.86267 500.815059 l
192.512629 528.721797 l
193.162588 538.024043 l
193.812547 538.024043 l
194.462506 519.419551 l
195.112465 528.721797 l
197.062342 528.721797 l
197.712301 538.024043 l
198.36226 519.419551 l
199.012219 519.419551 l
199.662179 528.721797 l
200.312138 556.628535 l
200.962097 510.117305 l
201.612056 538.024043 l
202.262015 547.326289 l
202.911974 528.721797 l
203.561933 547.326289 l
204.211892 538.024043 l
204.861851 547.326289 l
205.51181 538.024043 l
206.161769 538.024043 l
206.811728 519.419551 l
207.461687 547.326289 l
210.061523 547.326289 l
210.711482 519.419551 l
211.361441 547.326289 l
212.0114 547.326289 l
212.66136 565.930781 l
213.311319 547.326289 l
213.961278 538.024043 l
214.611237 538.024043 l
215.261196 556.628535 l
215.911155 547.326289 l
216.561114 519.419551 l
217.211073 565.930781 l
217.861032 556.628535 l
218.510991 538.024043 l
219.16095 547.326289 l
219.810909 538.024043 l
220.460868 547.326289 l
221.110827 538.024043 l
221.760786 556.628535 l
222.410745 556.628535 l
223.060704 547.326289 l
223.710663 565.930781 l
224.360622 547.326289 l
225.010581 547.326289 l
225.660541 528.721797 l
226.3105 556.628535 l
228.260377 556.628535 l
228.910336 538.024043 l
229.560295 565.930781 l
230.210254 565.930781 l
230.860213 556.628535 l
231.510172 565.930781 l
232.160131 565.930781 l
232.81009 556.628535 l
233.460049 556.628535 l
234.110008 565.930781 l
234.759967 565.930781 l
236.059885 547.326289 l
236.709844 556.628535 l
238.009762 556.628535 l
238.659722 575.233027 l
239.309681 565.930781 l
239.95964 575.233027 l
240.609599 556.628535 l
241.259558 556.628535 l
241.909517 538.024043 l
242.559476 556.628535 l
243.209435 556.628535 l
243.859394 547.326289 l
244.509353 556.628535 l
245.159312 547.326289 l
245.809271 556.628535 l
246.45923 547.326289 l
247.109189 547.326289 l
247.759148 565.930781 l
248.409107 556.628535 l
249.709025 556.628535 l
250.358984 538.024043 l
251.008943 556.628535 l
252.308862 538.024043 l
252.958821 556.628535 l
253.60878 547.326289 l
254.258739 556.628535 l
254.908698 528.721797 l
255.558657 565.930781 l
256.208616 547.326289 l
257.508534 565.930781 l
258.158493 556.628535 l
258.808452 556.628535 l
259.458411 565.930781 l
260.10837 547.326289 l
261.408288 565.930781 l
262.058247 556.628535 l
262.708206 565.930781 l
263.358165 556.628535 l
264.008124 556.628535 l
264.658084 547.326289 l
265.308043 556.628535 l
267.25792 556.628535 l
267.907879 547.326289 l
268.557838 547.326289 l
269.207797 556.628535 l
270.507715 556.628535 l
271.157674 565.930781 l
271.807633 565.930781 l
272.457592 556.628535 l
273.107551 575.233027 l
273.75751 556.628535 l
275.707387 556.628535 l
276.357346 565.930781 l
277.007305 565.930781 l
277.657265 538.024043 l
278.307224 565.930781 l
278.957183 547.326289 l
280.257101 565.930781 l
280.90706 547.326289 l
281.557019 575.233027 l
282.206978 565.930781 l
283.506896 565.930781 l
284.156855 584.535273 l
284.806814 556.628535 l
285.456773 547.326289 l
286.106732 547.326289 l
286.756691 575.233027 l
287.40665 556.628535 l
288.706568 556.628535 l
289.356527 538.024043 l
290.006486 547.326289 l
290.656446 547.326289 l
291.306405 565.930781 l
291.956364 565.930781 l
292.606323 556.628535 l
293.906241 556.628535 l
294.5562 565.930781 l
295.206159 565.930781 l
295.856118 547.326289 l
296.506077 547.326289 l
297.156036 556.628535 l
297.805995 547.326289 l
298.455954 575.233027 l
299.105913 547.326289 l
299.755872 547.326289 l
300.405831 556.628535 l
301.05579 547.326289 l
301.705749 547.326289 l
302.355708 565.930781 l
303.005667 556.628535 l
304.305586 556.628535 l
304.955545 565.930781 l
305.605504 556.628535 l
307.555381 556.628535 l
308.20534 565.930781 l
308.855299 565.930781 l
310.155217 547.326289 l
311.455135 547.326289 l
312.105094 565.930781 l
312.755053 556.628535 l
313.405012 556.628535 l
314.054971 565.930781 l
315.354889 547.326289 l
316.004848 556.628535 l
316.654808 547.326289 l
317.304767 556.628535 l
323.804357 556.628535 l
324.454316 547.326289 l
325.104275 556.628535 l
325.754234 547.326289 l
326.404193 565.930781 l
327.054152 565.930781 l
328.35407 547.326289 l
329.653989 547.326289 l
330.303948 575.233027 l
330.953907 565.930781 l
331.603866 538.024043 l
332.253825 556.628535 l
332.903784 538.024043 l
333.553743 575.233027 l
334.203702 528.721797 l
334.853661 556.628535 l
335.50362 538.024043 l
336.153579 556.628535 l
336.803538 556.628535 l
338.103456 538.024043 l
338.753415 565.930781 l
339.403374 556.628535 l
340.053333 556.628535 l
340.703292 547.326289 l
341.353251 547.326289 l
342.00321 565.930781 l
342.65317 538.024043 l
343.303129 556.628535 l
343.953088 556.628535 l
344.603047 575.233027 l
345.253006 556.628535 l
345.902965 556.628535 l
346.552924 565.930781 l
347.852842 547.326289 l
349.802719 547.326289 l
350.452678 538.024043 l
351.102637 565.930781 l
351.752596 547.326289 l
352.402555 538.024043 l
353.052514 547.326289 l
353.702473 528.721797 l
354.352432 565.930781 l
355.002391 547.326289 l
355.652351 556.628535 l
356.30231 538.024043 l
356.952269 547.326289 l
357.602228 538.024043 l
358.252187 565.930781 l
358.902146 565.930781 l
360.202064 547.326289 l
360.852023 556.628535 l
361.501982 547.326289 l
362.151941 547.326289 l
362.8019 556.628535 l
365.401736 556.628535 l
366.051695 547.326289 l
367.351613 565.930781 l
368.651532 547.326289 l
369.95145 547.326289 l
370.601409 565.930781 l
371.901327 547.326289 l
372.551286 547.326289 l
373.851204 565.930781 l
374.501163 547.326289 l
375.151122 565.930781 l
375.801081 547.326289 l
376.45104 547.326289 l
377.100999 565.930781 l
377.750958 538.024043 l
378.400917 556.628535 l
379.050876 556.628535 l
379.700835 538.024043 l
380.350794 538.024043 l
381.000753 556.628535 l
382.300672 556.628535 l
382.950631 547.326289 l
383.60059 575.233027 l
384.250549 565.930781 l
385.550467 565.930781 l
386.200426 547.326289 l
387.500344 565.930781 l
388.150303 556.628535 l
388.800262 575.233027 l
389.450221 547.326289 l
390.10018 565.930781 l
390.750139 547.326289 l
391.400098 556.628535 l
392.050057 556.628535 l
392.700016 547.326289 l
393.349975 556.628535 l
393.999934 547.326289 l
395.299853 547.326289 l
395.949812 565.930781 l
396.599771 565.930781 l
397.24973 547.326289 l
397.899689 565.930781 l
398.549648 556.628535 l
399.199607 556.628535 l
399.849566 547.326289 l
400.499525 565.930781 l
401.799443 547.326289 l
403.099361 565.930781 l
403.74932 547.326289 l
404.399279 556.628535 l
405.049238 556.628535 l
405.699197 565.930781 l
406.349156 556.628535 l
408.299034 556.628535 l
408.948993 538.024043 l
409.598952 547.326289 l
410.248911 565.930781 l
410.89887 565.930781 l
411.548829 575.233027 l
412.198788 565.930781 l
412.848747 547.326289 l
414.148665 547.326289 l
415.448583 565.930781 l
416.098542 547.326289 l
416.748501 565.930781 l
417.39846 556.628535 l
418.048419 556.628535 l
418.698378 565.930781 l
419.348337 565.930781 l
419.998296 538.024043 l
420.648256 556.628535 l
421.298215 565.930781 l
421.948174 565.930781 l
422.598133 538.024043 l
423.248092 528.721797 l
423.898051 547.326289 l
425.197969 565.930781 l
425.847928 565.930781 l
427.147846 547.326289 l
427.797805 556.628535 l
428.447764 547.326289 l
430.397641 547.326289 l
431.0476 565.930781 l
431.697559 547.326289 l
432.347518 547.326289 l
432.997477 556.628535 l
433.647437 556.628535 l
434.297396 547.326289 l
435.597314 547.326289 l
436.247273 565.930781 l
436.897232 547.326289 l
437.547191 547.326289 l
438.19715 556.628535 l
438.847109 556.628535 l
439.497068 565.930781 l
440.147027 556.628535 l
440.796986 556.628535 l
442.096904 538.024043 l
442.746863 547.326289 l
443.396822 538.024043 l
444.046781 538.024043 l
444.69674 556.628535 l
447.946536 556.628535 l
448.596495 575.233027 l
449.246454 547.326289 l
449.896413 556.628535 l
450.546372 556.628535 l
451.196331 538.024043 l
451.84629 528.721797 l
452.496249 556.628535 l
453.146208 556.628535 l
453.796167 528.721797 l
454.446126 528.721797 l
455.096085 538.024043 l
455.746044 538.024043 l
456.396003 556.628535 l
457.045962 556.628535 l
457.695921 547.326289 l
458.34588 547.326289 l
458.995839 538.024043 l
459.645799 547.326289 l
460.295758 565.930781 l
460.945717 547.326289 l
462.245635 547.326289 l
462.895594 556.628535 l
463.545553 556.628535 l
464.195512 538.024043 l
464.845471 556.628535 l
466.145389 538.024043 l
466.795348 565.930781 l
467.445307 538.024043 l
468.095266 538.024043 l
468.745225 519.419551 l
469.395184 510.117305 l
470.045143 491.512813 l
470.695102 491.512813 l
471.345061 482.210567 l
471.99502 482.210567 l
472.64498 463.606075 l
473.294939 454.303829 l
473.944898 435.699337 l
474.594857 435.699337 l
475.244816 417.094845 l
475.894775 407.792599 l
476.544734 407.792599 l
477.194693 398.490353 l
477.844652 398.490353 l
478.494611 361.281369 l
479.14457 351.979123 l
479.794529 370.583615 l
480.444488 370.583615 l
481.094447 361.281369 l
481.744406 342.676877 l
483.044324 342.676877 l
483.694283 324.072385 l
484.344242 324.072385 l
484.994201 305.467893 l
485.644161 305.467893 l
486.29412 286.863401 l
486.944079 296.165647 l
487.594038 286.863401 l
488.243997 296.165647 l
488.893956 296.165647 l
489.543915 286.863401 l
490.193874 305.467893 l
490.843833 277.561155 l
492.79371 249.654417 l
493.443669 268.258909 l
494.093628 249.654417 l
494.743587 240.352171 l
495.393546 258.956663 l
496.043505 231.049925 l
496.693464 249.654417 l
497.343423 231.049925 l
497.993382 240.352171 l
498.643342 212.445433 l
499.293301 221.747679 l
499.94326 221.747679 l
500.593219 203.143187 l
501.243178 203.143187 l
501.893137 221.747679 l
502.543096 221.747679 l
503.843014 203.143187 l
504.492973 203.143187 l
505.142932 221.747679 l
505.792891 193.840941 l
506.44285 203.143187 l
507.092809 184.538695 l
507.742768 175.236449 l
508.392727 193.840941 l
509.042686 175.236449 l
509.692645 184.538695 l
510.342604 175.236449 l
510.992563 175.236449 l
511.642523 184.538695 l
512.292482 165.934203 l
512.942441 175.236449 l
514.242359 175.236449 l
514.892318 184.538695 l
515.542277 165.934203 l
516.192236 175.236449 l
517.492154 156.631957 l
518.142113 165.934203 l
518.792072 156.631957 l
519.442031 165.934203 l
520.09199 156.631957 l
520.741949 165.934203 l
521.391908 165.934203 l
522.041867 156.631957 l
522.691826 165.934203 l
523.341785 147.329711 l
524.641704 147.329711 l
525.291663 165.934203 l
525.941622 165.934203 l
527.24154 147.329711 l
527.891499 156.631957 l
528.541458 156.631957 l
529.191417 128.725219 l
529.841376 147.329711 l
531.141294 147.329711 l
532.441212 128.725219 l
533.091171 147.329711 l
533.74113 119.422973 l
535.041048 156.631957 l
536.340966 138.027465 l
536.990925 156.631957 l
537.640885 138.027465 l
538.290844 138.027465 l
538.940803 147.329711 l
539.590762 165.934203 l
540.240721 119.422973 l
540.89068 138.027465 l
541.540639 128.725219 l
542.190598 147.329711 l
542.840557 138.027465 l
543.490516 147.329711 l
544.140475 138.027465 l
544.790434 147.329711 l
546.090352 147.329711 l
546.740311 138.027465 l
547.39027 138.027465 l
548.040229 147.329711 l
548.690188 138.027465 l
549.340147 119.422973 l
549.990106 128.725219 l
550.640066 147.329711 l
551.290025 147.329711 l
551.939984 128.725219 l
553.239902 147.329711 l
553.889861 128.725219 l
554.53982 138.027465 l
555.189779 128.725219 l
556.489697 128.725219 l
557.139656 147.329711 l
557.789615 128.725219 l
558.439574 147.329711 l
559.089533 128.725219 l
559.739492 138.027465 l
560.389451 119.422973 l
561.03941 119.422973 l
561.689369 138.027465 l
562.339328 128.725219 l
562.989287 128.725219 l
563.639247 138.027465 l
564.289206 128.725219 l
564.939165 128.725219 l
565.589124 138.027465 l
566.889042 119.422973 l
567.539001 147.329711 l
568.18896 138.027465 l
568.838919 119.422973 l
571.438755 119.422973 l
572.738673 138.027465 l
574.038591 138.027465 l
574.68855 119.422973 l
575.338509 128.725219 l
575.988468 128.725219 l
576.638428 119.422973 l
577.288387 128.725219 l
577.938346 119.422973 l
578.588305 138.027465 l
579.238264 138.027465 l
579.888223 119.422973 l
580.538182 138.027465 l
581.188141 128.725219 l
582.488059 128.725219 l
583.138018 119.422973 l
583.787977 128.725219 l
585.087895 128.725219 l
585.737854 138.027465 l
586.387813 138.027465 l
587.037772 110.120727 l
587.687731 138.027465 l
588.987649 119.422973 l
590.287568 138.027465 l
590.937527 119.422973 l
591.587486 138.027465 l
592.237445 119.422973 l
592.887404 138.027465 l
593.537363 147.329711 l
594.187322 138.027465 l
594.837281 138.027465 l
595.48724 119.422973 l
596.137199 119.422973 l
596.787158 128.725219 l
597.437117 119.422973 l
598.737035 119.422973 l
599.386994 138.027465 l
600.036953 119.422973 l
600.686912 128.725219 l
601.336871 156.631957 l
601.98683 138.027465 l
602.63679 138.027465 l
603.286749 147.329711 l
603.936708 138.027465 l
604.586667 119.422973 l
605.236626 128.725219 l
606.536544 128.725219 l
607.186503 147.329711 l
607.836462 119.422973 l
608.486421 138.027465 l
609.13638 138.027465 l
609.786339 128.725219 l
610.436298 110.120727 l
611.086257 119.422973 l
611.736216 138.027465 l
612.386175 138.027465 l
613.036134 128.725219 l
613.686093 128.725219 l
614.336052 138.027465 l
614.986011 119.422973 l
615.635971 110.120727 l
616.28593 147.329711 l
616.935889 119.422973 l
618.235807 138.027465 l
618.885766 128.725219 l
619.535725 110.120727 l
620.185684 128.725219 l
620.835643 138.027465 l
621.485602 119.422973 l
622.135561 138.027465 l
622.78552 138.027465 l
623.435479 119.422973 l
624.085438 147.329711 l
624.735397 128.725219 l
625.385356 138.027465 l
626.035315 138.027465 l
626.685274 119.422973 l
627.335233 128.725219 l
627.985192 128.725219 l
628.635152 119.422973 l
629.285111 147.329711 l
629.93507 138.027465 l
630.585029 119.422973 l
631.234988 138.027465 l
632.534906 119.422973 l
633.184865 119.422973 l
633.834824 138.027465 l
634.484783 128.725219 l
635.134742 128.725219 l
635.784701 138.027465 l
636.43466 119.422973 l
637.084619 128.725219 l
639.034496 128.725219 l
639.684455 147.329711 l
640.334414 128.725219 l
640.984373 128.725219 l
641.634333 119.422973 l
642.284292 138.027465 l
642.934251 138.027465 l
644.234169 119.422973 l
644.884128 138.027465 l
645.534087 138.027465 l
646.184046 147.329711 l
646.834005 138.027465 l
647.483964 138.027465 l
648.133923 119.422973 l
648.783882 147.329711 l
649.433841 128.725219 l
651.383718 128.725219 l
652.033677 119.422973 l
652.683636 128.725219 l
653.333595 119.422973 l
653.983554 119.422973 l
654.633514 128.725219 l
656.583391 128.725219 l
657.23335 147.329711 l
657.883309 128.725219 l
658.533268 119.422973 l
659.833186 156.631957 l
660.483145 119.422973 l
661.133104 138.027465 l
661.783063 128.725219 l
662.433022 138.027465 l
663.082981 128.725219 l
664.382899 147.329711 l
665.032858 147.329711 l
665.682817 128.725219 l
666.332776 138.027465 l
667.632695 138.027465 l
668.282654 147.329711 l
668.932613 128.725219 l
669.582572 138.027465 l
670.232531 128.725219 l
670.88249 128.725219 l
671.532449 138.027465 l
672.182408 128.725219 l
672.832367 138.027465 l
674.132285 138.027465 l
674.782244 119.422973 l
675.432203 138.027465 l
676.082162 138.027465 l
676.732121 147.329711 l
677.38208 138.027465 l
678.032039 138.027465 l
678.681998 128.725219 l
679.981916 147.329711 l
681.281835 128.725219 l
681.931794 138.027465 l
682.581753 128.725219 l
683.231712 128.725219 l
683.881671 156.631957 l
684.53163 128.725219 l
685.831548 128.725219 l
686.481507 138.027465 l
687.131466 110.120727 l
687.781425 138.027465 l
688.431384 147.329711 l
689.731302 128.725219 l
690.381261 128.725219 l
691.03122 138.027465 l
691.681179 119.422973 l
692.331138 128.725219 l
692.981097 147.329711 l
693.631057 110.120727 l
694.281016 138.027465 l
694.930975 138.027465 l
695.580934 128.725219 l
696.230893 128.725219 l
696.880852 138.027465 l
697.530811 138.027465 l
698.18077 147.329711 l
698.830729 147.329711 l
699.480688 128.725219 l
700.130647 147.329711 l
701.430565 128.725219 l
702.080524 138.027465 l
702.730483 138.027465 l
703.380442 119.422973 l
704.030401 128.725219 l
704.68036 128.725219 l
705.330319 138.027465 l
707.280197 138.027465 l
707.930156 147.329711 l
708.580115 147.329711 l
709.230074 138.027465 l
709.880033 119.422973 l
710.529992 138.027465 l
711.179951 147.329711 l
711.82991 138.027465 l
712.479869 138.027465 l
713.129828 128.725219 l
713.779787 138.027465 l
714.429746 138.027465 l
715.079705 119.422973 l
715.729664 138.027465 l
716.379623 119.422973 l
717.029582 147.329711 l
717.679541 119.422973 l
718.979459 138.027465 l
719.629419 128.725219 l
720.279378 138.027465 l
720.929337 119.422973 l
721.579296 147.329711 l
722.229255 147.329711 l
723.529173 128.725219 l
724.179132 138.027465 l
724.829091 156.631957 l
725.47905 138.027465 l
726.129009 147.329711 l
726.778968 138.027465 l
729.378804 138.027465 l
730.028763 165.934203 l
730.678722 138.027465 l
731.328681 147.329711 l
731.97864 138.027465 l
732.6286 138.027465 l
733.278559 147.329711 l
733.928518 147.329711 l
734.578477 128.725219 l
735.228436 138.027465 l
736.528354 138.027465 l
737.178313 156.631957 l
737.828272 119.422973 l
738.478231 147.329711 l
739.12819 138.027465 l
739.778149 138.027465 l
740.428108 156.631957 l
741.078067 147.329711 l
741.728026 147.329711 l
742.377985 128.725219 l
743.027944 156.631957 l
743.677903 156.631957 l
744.327862 165.934203 l
744.977821 138.027465 l
745.627781 138.027465 l
746.27774 147.329711 l
746.927699 138.027465 l
747.577658 138.027465 l
748.227617 128.725219 l
748.877576 138.027465 l
749.527535 138.027465 l
750.177494 147.329711 l
750.827453 138.027465 l
751.477412 147.329711 l
752.127371 128.725219 l
752.77733 147.329711 l
753.427289 128.725219 l
754.077248 147.329711 l
754.727207 138.027465 l
755.377166 156.631957 l
756.027125 147.329711 l
756.677084 119.422973 l
757.327043 128.725219 l
758.626962 128.725219 l
759.276921 138.027465 l
760.576839 138.027465 l
761.226798 147.329711 l
761.876757 128.725219 l
763.176675 147.329711 l
763.826634 138.027465 l
765.126552 138.027465 l
765.776511 128.725219 l
767.076429 147.329711 l
767.726388 138.027465 l
768.376347 156.631957 l
769.026306 138.027465 l
769.676265 147.329711 l
770.326224 138.027465 l
771.626143 138.027465 l
772.276102 147.329711 l
772.926061 147.329711 l
773.57602 138.027465 l
774.225979 138.027465 l
774.875938 128.725219 l
775.525897 138.027465 l
776.175856 128.725219 l
776.825815 138.027465 l
777.475774 138.027465 l
778.125733 119.422973 l
778.775692 147.329711 l
780.07561 110.120727 l
780.725569 128.725219 l
781.375528 138.027465 l
782.025487 128.725219 l
782.675446 147.329711 l
783.325405 138.027465 l
785.925242 138.027465 l
786.575201 147.329711 l
787.875119 128.725219 l
788.525078 128.725219 l
789.175037 147.329711 l
789.824996 138.027465 l
790.474955 147.329711 l
791.774873 128.725219 l
792.424832 128.725219 l
793.074791 165.934203 l
793.72475 175.236449 l
794.374709 175.236449 l
795.024668 193.840941 l
796.324586 193.840941 l
796.974545 203.143187 l
796.974545 203.143187 l
stroke
grestore
2.000 setlinewidth
1.000 0.498 0.055 setrgbcolor
gsave
714.2 521.9 115.2 86.4 clipbox
147.665455 215.134385 m
149.615332 246.5048 l
151.565209 274.984283 l
153.515086 300.839249 l
155.464963 324.311559 l
157.41484 345.620785 l
159.364717 364.966266 l
161.314595 382.528971 l
163.264472 398.47319 l
165.214349 412.948074 l
167.164226 426.08903 l
169.114103 438.018985 l
171.06398 448.849539 l
173.013857 458.682007 l
174.963735 467.608367 l
176.913612 475.712121 l
178.863489 483.069076 l
180.813366 489.748053 l
182.763243 495.811531 l
184.71312 501.316231 l
186.662998 506.313647 l
188.612875 510.850528 l
191.212711 516.256098 l
193.812547 521.007888 l
196.412383 525.184971 l
199.012219 528.856855 l
201.612056 532.08464 l
204.211892 534.92204 l
206.811728 537.416269 l
209.411564 539.608832 l
212.0114 541.536215 l
214.611237 543.230489 l
217.861032 545.063144 l
221.110827 546.623057 l
224.360622 547.950819 l
228.260377 549.285968 l
232.160131 550.386375 l
236.709844 551.428141 l
241.909517 552.363705 l
247.759148 553.164605 l
254.258739 553.820342 l
262.058247 554.373412 l
271.807633 554.822427 l
284.156855 555.153203 l
301.705749 555.380758 l
330.953907 555.506324 l
409.598952 555.544015 l
465.49543 555.544745 l
465.49543 555.544745 l
stroke
grestore
0.173 0.627 0.173 setrgbcolor
gsave
714.2 521.9 115.2 86.4 clipbox
467.445307 554.956117 m
469.395184 516.502306 l
471.345061 481.554883 l
473.294939 449.794119 l
475.244816 420.929441 l
477.194693 394.69677 l
479.14457 370.85611 l
481.094447 349.189345 l
483.044324 329.498251 l
484.994201 311.602677 l
486.944079 295.338901 l
488.893956 280.558126 l
490.843833 267.125127 l
492.79371 254.917009 l
494.743587 243.822079 l
496.693464 233.738835 l
498.643342 224.575024 l
500.593219 216.24681 l
502.543096 208.677999 l
504.492973 201.799346 l
506.44285 195.547918 l
508.392727 189.866523 l
510.342604 184.703182 l
512.292482 180.010657 l
514.892318 174.412707 l
517.492154 169.48479 l
520.09199 165.146708 l
522.691826 161.327862 l
525.291663 157.966104 l
527.891499 155.006723 l
530.491335 152.401558 l
533.091171 150.108211 l
535.691007 148.089361 l
538.290844 146.312153 l
541.540639 144.386724 l
544.790434 142.744924 l
548.040229 141.344971 l
551.939984 139.934484 l
555.839738 138.769499 l
560.389451 137.664054 l
564.939165 136.779657 l
570.138837 135.983307 l
576.638428 135.234962 l
583.787977 134.645378 l
592.887404 134.139975 l
603.936708 133.764034 l
618.885766 133.492421 l
641.634333 133.323572 l
687.781425 133.249815 l
790.474955 133.241305 l
790.474955 133.241305 l
stroke
grestore
0.800 setlinewidth
0 setlinejoin
[] 0 setdash
0.000 setgray
gsave
115.2 86.4 m
115.2 608.256 l
stroke
grestore
gsave
829.44 86.4 m
829.44 608.256 l
stroke
grestore
gsave
115.2 86.4 m
829.44 86.4 l
stroke
grestore
gsave
115.2 608.256 m
829.44 608.256 l
stroke
grestore
/DejaVuSans findfont
12.000 scalefont
setfont
gsave
332.374687 614.256000 translate
0.000000 rotate
0.000000 0 m /S glyphshow
7.617188 0 m /q glyphshow
15.234375 0 m /u glyphshow
22.839844 0 m /a glyphshow
30.193359 0 m /r glyphshow
34.876953 0 m /e glyphshow
42.259766 0 m /space glyphshow
46.074219 0 m /s glyphshow
52.326172 0 m /i glyphshow
55.660156 0 m /g glyphshow
63.277344 0 m /n glyphshow
70.882812 0 m /a glyphshow
78.236328 0 m /l glyphshow
81.570312 0 m /space glyphshow
85.384766 0 m /a glyphshow
92.738281 0 m /t glyphshow
97.443359 0 m /space glyphshow
101.257812 0 m /five glyphshow
108.892578 0 m /space glyphshow
112.707031 0 m /k glyphshow
119.656250 0 m /H glyphshow
128.679688 0 m /z glyphshow
134.978516 0 m /space glyphshow
138.792969 0 m /w glyphshow
148.607422 0 m /i glyphshow
151.941406 0 m /t glyphshow
156.646484 0 m /h glyphshow
164.251953 0 m /space glyphshow
168.066406 0 m /eight glyphshow
175.701172 0 m /zero glyphshow
183.335938 0 m /zero glyphshow
190.970703 0 m /space glyphshow
194.785156 0 m /n glyphshow
202.390625 0 m /m glyphshow
214.080078 0 m /space glyphshow
217.894531 0 m /m glyphshow
229.583984 0 m /o glyphshow
236.925781 0 m /d glyphshow
244.542969 0 m /u glyphshow
252.148438 0 m /l glyphshow
255.482422 0 m /a glyphshow
262.835938 0 m /t glyphshow
267.541016 0 m /o glyphshow
274.882812 0 m /r glyphshow
grestore
1.000 setlinewidth
0 setlinecap
0.800 setgray
gsave
604.44 545.584125 m
822.44 545.584125 l
823.773333 545.584125 824.44 546.250792 824.44 547.584125 c
824.44 601.256 l
824.44 602.589333 823.773333 603.256 822.44 603.256 c
604.44 603.256 l
603.106667 603.256 602.44 602.589333 602.44 601.256 c
602.44 547.584125 l
602.44 546.250792 603.106667 545.584125 604.44 545.584125 c
cl
gsave
1.000 setgray
fill
grestore
stroke
grestore
1.500 setlinewidth
1 setlinejoin
2 setlinecap
[] 0 setdash
0.122 0.467 0.706 setrgbcolor
gsave
606.44 595.16225 m
626.44 595.16225 l
stroke
grestore
0.000 setgray
/DejaVuSans findfont
10.000 scalefont
setfont
gsave
634.440000 591.662250 translate
0.000000 rotate
0.000000 0 m /c glyphshow
5.498047 0 m /o glyphshow
11.616211 0 m /l glyphshow
14.394531 0 m /l glyphshow
17.172852 0 m /e glyphshow
23.325195 0 m /c glyphshow
28.823242 0 m /t glyphshow
32.744141 0 m /e glyphshow
38.896484 0 m /d glyphshow
45.244141 0 m /space glyphshow
48.422852 0 m /d glyphshow
54.770508 0 m /a glyphshow
60.898438 0 m /t glyphshow
64.819336 0 m /a glyphshow
grestore
2.000 setlinewidth
1.000 0.498 0.055 setrgbcolor
gsave
606.44 578.084125 m
626.44 578.084125 l
stroke
grestore
0.000 setgray
gsave
634.440000 574.584125 translate
0.000000 rotate
/DejaVuSans-Oblique findfont
10.0 scalefont
setfont
0.000000 0.706250 moveto
/f glyphshow
/DejaVuSans findfont
10.0 scalefont
setfont
3.520508 0.706250 moveto
/parenleft glyphshow
/DejaVuSans-Oblique findfont
10.0 scalefont
setfont
7.421875 0.706250 moveto
/x glyphshow
/DejaVuSans findfont
10.0 scalefont
setfont
13.339844 0.706250 moveto
/parenright glyphshow
19.189453 0.706250 moveto
/equal glyphshow
29.516602 0.706250 moveto
/zero glyphshow
35.878906 0.706250 moveto
/period glyphshow
39.057617 0.706250 moveto
/zero glyphshow
45.419922 0.706250 moveto
/four glyphshow
51.782227 0.706250 moveto
/five glyphshow
58.144531 0.706250 moveto
/parenleft glyphshow
62.045898 0.706250 moveto
/one glyphshow
70.356445 0.706250 moveto
/minus glyphshow
80.683594 0.706250 moveto
/e glyphshow
86.835938 0.706250 moveto
/x glyphshow
92.753906 0.706250 moveto
/p glyphshow
99.101562 0.706250 moveto
/parenleft glyphshow
103.002930 0.706250 moveto
/minus glyphshow
/DejaVuSans-Oblique findfont
7.0 scalefont
setfont
122.381836 5.089063 moveto
/t glyphshow
111.381836 2.589063 24.493164 0.625000 rectfill
/DejaVuSans findfont
7.0 scalefont
setfont
111.381836 -3.231250 moveto
/zero glyphshow
115.835449 -3.231250 moveto
/period glyphshow
118.060547 -3.231250 moveto
/zero glyphshow
122.514160 -3.231250 moveto
/zero glyphshow
126.967773 -3.231250 moveto
/six glyphshow
131.421387 -3.231250 moveto
/two glyphshow
/DejaVuSans findfont
10.0 scalefont
setfont
137.125000 0.706250 moveto
/parenright glyphshow
141.026367 0.706250 moveto
/parenright glyphshow
146.875977 0.706250 moveto
/plus glyphshow
157.203125 0.706250 moveto
/zero glyphshow
163.565430 0.706250 moveto
/period glyphshow
166.744141 0.706250 moveto
/zero glyphshow
173.106445 0.706250 moveto
/nine glyphshow
179.468750 0.706250 moveto
/three glyphshow

grestore
0.173 0.627 0.173 setrgbcolor
gsave
606.44 558.084125 m
626.44 558.084125 l
stroke
grestore
0.000 setgray
gsave
634.440000 554.584125 translate
0.000000 rotate
/DejaVuSans-Oblique findfont
10.0 scalefont
setfont
0.000000 0.323438 moveto
/f glyphshow
/DejaVuSans findfont
10.0 scalefont
setfont
3.520508 0.323438 moveto
/parenleft glyphshow
/DejaVuSans-Oblique findfont
10.0 scalefont
setfont
7.421875 0.323438 moveto
/x glyphshow
/DejaVuSans findfont
10.0 scalefont
setfont
13.339844 0.323438 moveto
/parenright glyphshow
19.189453 0.323438 moveto
/equal glyphshow
29.516602 0.323438 moveto
/zero glyphshow
35.878906 0.323438 moveto
/period glyphshow
39.057617 0.323438 moveto
/zero glyphshow
45.419922 0.323438 moveto
/two glyphshow
51.657227 0.323438 moveto
/nine glyphshow
58.019531 0.323438 moveto
/e glyphshow
64.171875 0.323438 moveto
/x glyphshow
70.089844 0.323438 moveto
/p glyphshow
76.437500 0.323438 moveto
/parenleft glyphshow
80.338867 0.323438 moveto
/minus glyphshow
/DejaVuSans-Oblique findfont
7.0 scalefont
setfont
88.717773 4.804688 moveto
/t glyphshow
/DejaVuSans findfont
7.0 scalefont
setfont
92.826172 4.804688 moveto
/minus glyphshow
100.055176 4.804688 moveto
/zero glyphshow
104.508789 4.804688 moveto
/period glyphshow
106.733887 4.804688 moveto
/zero glyphshow
111.187500 4.804688 moveto
/one glyphshow
115.641113 4.804688 moveto
/zero glyphshow
88.717773 2.206250 31.376953 0.625000 rectfill
91.717773 -3.614062 moveto
/zero glyphshow
96.171387 -3.614062 moveto
/period glyphshow
98.396484 -3.614062 moveto
/zero glyphshow
102.850098 -3.614062 moveto
/zero glyphshow
107.303711 -3.614062 moveto
/six glyphshow
111.757324 -3.614062 moveto
/three glyphshow
/DejaVuSans findfont
10.0 scalefont
setfont
121.344727 0.323438 moveto
/parenright glyphshow
127.194336 0.323438 moveto
/plus glyphshow
137.521484 0.323438 moveto
/zero glyphshow
143.883789 0.323438 moveto
/period glyphshow
147.062500 0.323438 moveto
/zero glyphshow
153.424805 0.323438 moveto
/eight glyphshow
159.787109 0.323438 moveto
/two glyphshow

grestore

end
showpage
